<svg xmlns="http://www.w3.org/2000/svg" width="22" height="57" viewBox="0 0 22 57">
  <path id="arrow-left--white" d="M52.041.018,28.5,17.679,4.959.018,0,0,28.5,22,57,0Z" transform="translate(22) rotate(90)" fill="#fff"/>
</svg>
