<svg xmlns="http://www.w3.org/2000/svg" width="304" height="303" viewBox="0 0 304 303">
  <path id="pagEx05-23" d="M272,135.5C272,210.334,211.11,271,136,271S0,210.334,0,135.5,60.89,0,136,0" transform="translate(16 16)" fill="none" stroke="#b5d5ff" stroke-linecap="round" stroke-linejoin="round" stroke-miterlimit="10" stroke-width="32" opacity="0.32"/>
</svg>
