<svg xmlns="http://www.w3.org/2000/svg" width="425" height="425" viewBox="0 0 425 425">
  <path id="pagEx03-49" d="M393,196.5C393,305.023,305.023,393,196.5,393S0,305.023,0,196.5,87.977,0,196.5,0" transform="translate(16 16)" fill="none" stroke="#f9e581" stroke-linecap="round" stroke-linejoin="round" stroke-miterlimit="10" stroke-width="32" opacity="0.32"/>
</svg>
