<svg xmlns="http://www.w3.org/2000/svg" width="475" height="475" viewBox="0 0 475 475">
  <path id="pagEx03-50" d="M475,237.5C475,368.668,368.668,475,237.5,475S0,368.668,0,237.5,106.332,0,237.5,0,475,106.332,475,237.5" fill="rgba(249,229,129,0.2)"/>
</svg>
