<?xml version="1.0" encoding="UTF-8"?>
<svg width="621px" height="83px" viewBox="0 0 621 83" version="1.1" xmlns="http://www.w3.org/2000/svg" xmlns:xlink="http://www.w3.org/1999/xlink">
    <!-- Generator: Sketch 59.1 (86144) - https://sketch.com -->
    <title>The Knowledge Feedback Loop </title>
    <desc>Created with Sketch.</desc>
    <g id="Page-1" stroke="none" stroke-width="1" fill="none" fill-rule="evenodd">
        <g id="The-Knowledge-Feedback-Loop-" transform="translate(2.000000, 1.000000)">
            <polygon id="Fill-1-Copy-11" fill="#F4D0B7" points="19.4673218 0 0 81 597.531243 81 617 0"></polygon>
            <polygon id="Stroke-2-Copy-11" stroke="#002D37" stroke-width="2" points="597.531243 81 0 81 19.4673218 0 617 0"></polygon>
            <path d="M123.601,51.026 L127.267,51.026 L127.267,34.1 L131.973,34.1 L131.973,31.916 L118.999,31.916 L118.999,34.1 L123.601,34.1 L123.601,51.026 Z M142.849667,51 L146.281667,51 L146.281667,41.796 C146.281667,39.04 144.565667,37.142 141.575667,37.116 C139.677667,37.09 138.169667,38.208 137.597667,39.326 L137.597667,31.058 L134.139667,31.058 L134.139667,51 L137.649667,51 L137.649667,43.642 C137.649667,41.146 138.481667,39.378 140.613667,39.378 C142.225667,39.404 142.849667,40.652 142.849667,42.03 L142.849667,51 Z M156.430333,51.494 C158.484333,51.494 160.044333,51.104 161.058333,50.35 L161.058333,47.906 C159.758333,48.92 158.328333,49.466 156.638333,49.414 C153.960333,49.362 152.738333,47.672 152.738333,44.708 L161.864333,44.708 C161.926733,44.292 161.955853,43.92592 161.951693,43.5432 L161.942333,43.252 C161.916333,40.34 160.096333,37.038 155.754333,37.038 C151.568333,37.038 149.150333,40.34 149.124333,44.136 C149.098333,48.816 151.568333,51.494 156.430333,51.494 Z M152.816333,42.914 C152.816333,40.834 153.856333,38.884 155.702333,38.884 C157.470333,38.884 158.510333,40.756 158.484333,42.914 L152.816333,42.914 Z M176.805667,42.628 L181.797667,51 L185.827667,51 L178.703667,40.496 L185.567667,31.916 L181.823667,31.916 L179.946341,34.6008757 C179.240128,35.6052308 178.575667,36.54 178.001667,37.324 L177.424531,38.0868093 C176.74821,38.9725926 176.071889,39.8286667 175.505667,40.496 L175.505667,31.916 L171.943667,31.916 L171.943667,51.026 L175.505667,51.026 L175.505667,44.266 L176.805667,42.628 Z M196.470333,51 L199.928333,51 L199.928333,41.9 C199.928333,39.144 198.394333,37.142 195.352333,37.116 C193.246333,37.09 191.634333,38.286 191.088333,39.612 L191.088333,37.454 L187.890333,37.454 L187.890333,51.026 L191.322333,51.026 L191.322333,43.798 C191.322333,41.276 192.102333,39.482 194.234333,39.482 C195.924333,39.482 196.470333,40.704 196.470333,42.186 L196.470333,51 Z M215.849,44.266 C215.849,40.86 214.029,37.116 209.401,37.09 C204.877,37.09 202.745,40.782 202.745,44.292 C202.745,48.088 204.695,51.442 209.219,51.468 C213.925,51.494 215.849,48.166 215.849,44.266 Z M212.339,44.318 C212.339,46.892 211.611,49.57 209.401,49.57 C207.331706,49.57 206.315614,46.9982266 206.257634,44.5409945 L206.255,44.318 C206.229,41.978 206.983,38.988 209.193,39.014 C211.403,39.014 212.313,42.004 212.339,44.318 Z M221.473667,50.974 L224.827667,50.974 L226.829667,44.24 L227.05985,43.4288999 C227.330728,42.4549877 227.598111,41.4146667 227.739667,40.626 L227.921667,40.626 C228.103667,41.666 228.519667,43.096 228.831667,44.24 L230.755667,50.974 L234.005667,50.974 L237.931667,37.48 L234.915667,37.48 L233.407667,44.318 L233.174652,45.356484 C232.990075,46.1963673 232.828238,46.9737143 232.679667,47.698 L232.523667,47.698 C232.315667,46.71 231.951667,45.358 231.639667,44.266 L229.715667,37.48 L226.049667,37.48 L224.567667,43.538 L223.942846,45.8867904 C223.768113,46.5527107 223.60803,47.1898182 223.501667,47.698 L223.345667,47.698 L223.098129,46.6306717 C222.852311,45.5877025 222.551485,44.3534545 222.305667,43.408 L220.745667,37.48 L217.079667,37.48 L221.473667,50.974 Z M245.922333,51.026 L245.922333,48.868 C245.558333,49.05 245.116333,49.154 244.700333,49.128 C243.712333,49.102 243.504333,48.686 243.504333,47.048 L243.504333,31.058 L240.072333,31.058 L240.072333,47.282 C240.072333,49.024 240.384333,49.986 241.060333,50.636 C242.048333,51.598 244.310333,51.65 245.922333,51.026 Z M254.693,51.494 C256.747,51.494 258.307,51.104 259.321,50.35 L259.321,47.906 C258.021,48.92 256.591,49.466 254.901,49.414 C252.223,49.362 251.001,47.672 251.001,44.708 L260.127,44.708 C260.1894,44.292 260.21852,43.92592 260.21436,43.5432 L260.205,43.252 C260.179,40.34 258.359,37.038 254.017,37.038 C249.831,37.038 247.413,40.34 247.387,44.136 C247.361,48.816 249.831,51.494 254.693,51.494 Z M251.079,42.914 C251.079,40.834 252.119,38.884 253.965,38.884 C255.733,38.884 256.773,40.756 256.747,42.914 L251.079,42.914 Z M268.533667,51.416 C270.483667,51.416 271.861667,50.324 272.407667,49.232 L272.407667,51 L275.657667,51 L275.657667,31.084 L272.199667,31.084 L272.199667,38.884 C271.393667,37.74 270.015667,37.09 268.273667,37.116 C264.997667,37.116 262.631667,39.794 262.605667,44.136 C262.579667,48.686 264.737667,51.416 268.533667,51.416 Z M269.287667,49.44 C267.129667,49.414 266.089667,47.256 266.089667,44.188 C266.089667,41.328 267.155667,39.248 269.339667,39.248 C271.211667,39.222 272.407667,40.782 272.537667,43.59 L272.537667,44.708 C272.407667,47.49 271.107667,49.414 269.287667,49.44 Z M284.480333,57.11 C290.434333,57.188 291.942333,53.808 291.838333,48.868 L291.838333,37.454 L288.588333,37.454 L288.588333,39.144 C287.912333,37.844 286.482333,36.986 284.688333,36.986 C280.814333,37.012 278.448333,40.106 278.448333,44.058 C278.422333,48.27 280.424333,51.156 284.688333,51.156 C286.248333,51.156 287.834333,50.376 288.458333,49.232 C288.416733,49.856 288.425053,50.38016 288.390109,50.950912 L288.354333,51.39 C288.224333,53.314 287.184333,54.952 284.584333,54.952 C282.790333,54.9 281.282333,54.25 279.748333,53.158 L279.748333,55.602 C281.074333,56.512 282.920333,57.058 284.480333,57.11 Z M285.234333,49.102 C283.128333,49.076 281.932333,46.814 281.932333,44.11 C281.932333,41.172 283.102333,38.936 285.364333,38.936 C287.262333,38.936 288.328333,40.912 288.458333,43.226 L288.458333,44.5 C288.406333,47.36 287.340333,49.128 285.234333,49.102 Z M302.039,51.494 C304.093,51.494 305.653,51.104 306.667,50.35 L306.667,47.906 C305.367,48.92 303.937,49.466 302.247,49.414 C299.569,49.362 298.347,47.672 298.347,44.708 L307.473,44.708 C307.5354,44.292 307.56452,43.92592 307.56036,43.5432 L307.551,43.252 C307.525,40.34 305.705,37.038 301.363,37.038 C297.177,37.038 294.759,40.34 294.733,44.136 C294.707,48.816 297.177,51.494 302.039,51.494 Z M298.425,42.914 C298.425,40.834 299.465,38.884 301.311,38.884 C303.079,38.884 304.119,40.756 304.093,42.914 L298.425,42.914 Z M321.062333,34.1 L327.770333,34.1 L327.770333,31.916 L317.396333,31.916 L317.396333,51 L321.062333,51 L321.062333,41.77 L326.600333,41.77 L326.600333,39.612 L321.062333,39.612 L321.062333,34.1 Z M336.047,51.494 C338.101,51.494 339.661,51.104 340.675,50.35 L340.675,47.906 C339.375,48.92 337.945,49.466 336.255,49.414 C333.577,49.362 332.355,47.672 332.355,44.708 L341.481,44.708 C341.5434,44.292 341.57252,43.92592 341.56836,43.5432 L341.559,43.252 C341.533,40.34 339.713,37.038 335.371,37.038 C331.185,37.038 328.767,40.34 328.741,44.136 C328.715,48.816 331.185,51.494 336.047,51.494 Z M332.433,42.914 C332.433,40.834 333.473,38.884 335.319,38.884 C337.087,38.884 338.127,40.756 338.101,42.914 L332.433,42.914 Z M351.135667,51.494 C353.189667,51.494 354.749667,51.104 355.763667,50.35 L355.763667,47.906 C354.463667,48.92 353.033667,49.466 351.343667,49.414 C348.665667,49.362 347.443667,47.672 347.443667,44.708 L356.569667,44.708 C356.647667,44.188 356.673667,43.746 356.647667,43.252 C356.621667,40.34 354.801667,37.038 350.459667,37.038 C346.273667,37.038 343.855667,40.34 343.829667,44.136 C343.803667,48.816 346.273667,51.494 351.135667,51.494 Z M347.521667,42.914 C347.521667,40.834 348.561667,38.884 350.407667,38.884 C352.175667,38.884 353.215667,40.756 353.189667,42.914 L347.521667,42.914 Z M364.976333,51.416 C366.926333,51.416 368.304333,50.324 368.850333,49.232 L368.850333,51 L372.100333,51 L372.100333,31.084 L368.642333,31.084 L368.642333,38.884 C367.836333,37.74 366.458333,37.09 364.716333,37.116 C361.440333,37.116 359.074333,39.794 359.048333,44.136 C359.022333,48.686 361.180333,51.416 364.976333,51.416 Z M365.730333,49.44 C363.572333,49.414 362.532333,47.256 362.532333,44.188 C362.532333,41.328 363.598333,39.248 365.782333,39.248 C367.654333,39.222 368.850333,40.782 368.980333,43.59 L368.980333,44.708 C368.850333,47.49 367.550333,49.414 365.730333,49.44 Z M382.587,51.416 C386.409,51.468 388.541,48.686 388.515,44.136 C388.489,39.794 386.097,37.116 382.847,37.116 C381.105,37.09 379.727,37.74 378.921,38.884 L378.921,31.084 L375.463,31.084 L375.463,51.026 L378.713,51.026 L378.713,49.232 C379.259,50.35 380.585,51.416 382.587,51.416 Z M381.833,49.388 C380.039,49.336 378.713,47.49 378.583,44.708 L378.583,43.59 C378.713,40.782 379.909,39.222 381.781,39.248 C383.939,39.248 385.005,41.328 385.005,44.188 C385.005,47.256 384.199,49.362 381.833,49.388 Z M399.599667,51.052 L402.901667,51.052 C402.719667,50.272 402.589667,48.946 402.563667,48.088 L402.563667,41.77 C402.563667,38.832 400.717667,37.012 397.337667,37.038 C395.205667,37.064 393.281667,37.688 391.929667,38.546 L391.929667,40.964 C393.359667,39.846 395.309667,39.092 396.947667,39.092 C398.403667,39.092 399.157667,39.924 399.157667,41.588 L399.157667,42.628 C398.507667,42.498 397.857667,42.472 396.739667,42.55 C392.891667,42.732 390.915667,44.604 390.889667,46.996 C390.863667,49.388 392.163667,51.442 395.699667,51.364 C397.649667,51.338 398.897667,50.324 399.417667,49.336 C399.417667,49.856 399.469667,50.402 399.599667,51.052 Z M399.235667,44.396 L399.235667,45.93 C399.209667,46.918 399.131667,47.672 398.429667,48.426 C397.701667,49.102 396.973667,49.206 396.167667,49.154 C394.893667,49.076 394.217667,48.218 394.217667,46.762 C394.243667,45.176 395.543667,44.5 396.973667,44.344 C397.805667,44.24 398.585667,44.266 399.235667,44.396 Z M416.638333,50.324 L416.638333,47.88 C415.390333,49.024 414.506333,49.44 412.764333,49.44 C409.800333,49.466 408.890333,47.152 408.838333,44.292 C408.812333,41.952 409.540333,39.04 412.478333,38.988 C414.090333,38.962 415.312333,39.586 416.586333,40.834 L416.586333,38.26 C415.390333,37.428 413.908333,36.9857357 412.036333,36.9857357 C407.460333,36.96 405.328333,40.756 405.328333,44.266 C405.328333,48.608 407.564333,51.442 412.296333,51.494 C414.168333,51.494 415.572333,51.13 416.638333,50.324 Z M427.463,51.026 L431.363,51.026 L425.773,43.252 L430.817,37.428 L427.229,37.428 L425.953752,39.062672 C424.43868,41.01704 423.6358,42.1028 423.199,42.706 L423.043,42.706 L423.043,31.058 L419.559,31.058 L419.559,51 L423.043,51 L423.043,46.086 L423.927,45.046 L427.463,51.026 Z M450.646333,51 L450.646333,48.79 L443.886333,48.79 L443.886333,31.89 L440.220333,31.89 L440.220333,51 L450.646333,51 Z M465.761,44.266 C465.761,40.86 463.941,37.116 459.313,37.09 C454.789,37.09 452.657,40.782 452.657,44.292 C452.657,48.088 454.607,51.442 459.131,51.468 C463.837,51.494 465.761,48.166 465.761,44.266 Z M462.251,44.318 C462.251,46.892 461.523,49.57 459.313,49.57 C457.243706,49.57 456.227614,46.9982266 456.169634,44.5409945 L456.167,44.318 C456.141,41.978 456.895,38.988 459.105,39.014 C461.315,39.014 462.225,42.004 462.251,44.318 Z M481.135667,44.266 C481.135667,40.86 479.315667,37.116 474.687667,37.09 C470.163667,37.09 468.031667,40.782 468.031667,44.292 C468.031667,48.088 469.981667,51.442 474.505667,51.468 C479.211667,51.494 481.135667,48.166 481.135667,44.266 Z M477.625667,44.318 C477.625667,46.892 476.897667,49.57 474.687667,49.57 C472.618373,49.57 471.602281,46.9982266 471.544301,44.5409945 L471.541667,44.318 C471.515667,41.978 472.269667,38.988 474.479667,39.014 C476.689667,39.014 477.599667,42.004 477.625667,44.318 Z M491.180333,37.012 C489.230333,37.012 487.826333,38.078 487.306333,39.196 L487.306333,37.48 L484.056333,37.48 L484.056333,57.136 L487.488333,57.136 L487.488333,49.518 C488.320333,50.662 489.698333,51.338 491.440333,51.312 C494.690333,51.286 497.082333,48.608 497.108333,44.292 C497.134333,39.716 494.976333,37.012 491.180333,37.012 Z M490.426333,39.04 C492.584333,39.066 493.598333,41.146 493.598333,44.214 C493.598333,47.1 492.532333,49.154 490.374333,49.18 C488.502333,49.18 487.306333,47.62 487.176333,44.812 L487.176333,43.694 C487.306333,40.912 488.580333,39.066 490.426333,39.04 Z" id="TheKnowledgeFeedbackLoop" fill="#002C36" fill-rule="nonzero"></path>
        </g>
    </g>
</svg>