<?xml version="1.0" encoding="UTF-8"?>
<svg width="621px" height="83px" viewBox="0 0 621 83" version="1.1" xmlns="http://www.w3.org/2000/svg" xmlns:xlink="http://www.w3.org/1999/xlink">
    <!-- Generator: Sketch 59.1 (86144) - https://sketch.com -->
    <title>Group 61 Copy</title>
    <desc>Created with Sketch.</desc>
    <g id="Page-1" stroke="none" stroke-width="1" fill="none" fill-rule="evenodd">
        <g id="Group-61-Copy" transform="translate(2.000000, 1.000000)">
            <polygon id="Fill-1-Copy-3" fill="#F4D0B7" points="19.4673218 0 0 81 597.531243 81 617 0"></polygon>
            <polygon id="Stroke-2-Copy-3" stroke="#002D37" stroke-width="2" points="597.531243 81 0 81 19.4673218 0 617 0"></polygon>
            <path d="M277.714667,29.71 L276.440667,29.71 L276.453384,30.3606526 C276.47645,32.0701301 276.387738,32.9497857 275.946667,32.648 C275.504667,32.362 275.140667,31.4 274.854667,30.126 C276.076667,28.514 277.168667,26.642 278.078667,24.484 L275.738667,23.34 C275.322667,24.51 274.880667,25.602 274.360667,26.616 C274.204667,25.16 274.126667,23.652 274.100667,22.352 L277.870667,22.352 L277.870667,20.792 L274.100667,20.792 L274.074667,12.056 L274.074667,12.056 L271.214667,12.056 C271.188667,14.786 271.240667,17.854 271.266667,20.792 L268.848667,20.792 C269.524667,19.804 270.096667,18.712 270.616667,17.36 L268.354667,16.71 L270.824667,16.71 L270.824667,15.202 L267.678667,15.202 L268.744667,14.526 C267.886667,13.382 266.664667,12.29 265.624667,11.64 L264.688667,12.42 C265.208667,13.278 265.728667,14.188 266.222667,15.202 L263.180667,15.202 L263.180667,16.71 L268.094667,16.71 C267.938667,18.4 267.730667,19.518 267.418667,20.792 L265.572667,20.792 L266.898667,20.246 C266.378667,18.998 265.546667,17.724 264.636667,16.71 L263.648667,17.256 C263.986667,18.14 264.402667,19.414 264.740667,20.792 L262.608667,20.792 L262.608667,14.734 L263.830667,14.734 L263.830667,13.226 L254.782667,13.226 L254.782667,14.734 L255.848667,14.734 L255.848667,29.944 L254.392667,30.178 L255.276667,32.986 C256.784667,32.44 258.526667,31.634 259.930667,30.724 L259.930667,36.158 L262.608667,36.158 L262.608667,22.352 L271.292667,22.352 C271.370667,24.978 271.526667,27.812 272.046667,30.256 C271.500667,30.932 270.928667,31.582 270.330667,32.18 L270.330667,23.6 L263.544667,23.6 L263.544667,33.844 L265.962667,33.844 L265.962667,32.206 L270.304667,32.206 C269.056667,33.402 267.730667,34.364 266.326667,35.118 L266.924667,36.288 C269.030667,35.456 270.980667,34.208 272.722667,32.544 C273.346667,34.208 274.230667,35.456 275.504667,35.95 C278.052667,36.99 278.650667,34.13 277.714667,29.71 Z M278.000667,18.738 C277.246667,17.048 276.362667,15.384 275.166667,13.876 L274.126667,14.37 C274.620667,16.008 275.088667,17.802 275.504667,19.7 L278.000667,18.738 Z M258.370667,14.734 L259.930667,14.734 L259.930667,18.218 L258.370667,18.218 L258.370667,14.734 Z M258.370667,19.7 L259.930667,19.7 L259.930667,23.392 L258.370667,23.392 L258.370667,19.7 Z M258.370667,29.398 L258.370667,24.874 L259.930667,24.874 L259.930667,28.956 L258.370667,29.398 L258.370667,29.398 Z M267.912667,27.058 L265.962667,27.058 L265.962667,25.082 L267.912667,25.082 L267.912667,27.058 Z M267.912667,30.698 L265.962667,30.698 L265.962667,28.514 L267.912667,28.514 L267.912667,30.698 Z M294.961333,29.034 L303.567333,29.034 L303.567333,27.5 L294.077333,27.5 L294.077333,26.044 L300.967333,26.044 L300.967333,24.562 L294.077333,24.562 L294.077333,23.21 L302.527333,23.21 L302.527333,21.676 L296.157333,21.676 C296.989333,21.026 297.847333,20.22 298.627333,19.362 L297.171333,18.686 L303.125333,18.686 L303.125333,17.178 L298.627333,17.178 C299.693333,16.19 300.863333,14.864 301.643333,13.746 L298.679333,12.316 C298.159333,14.006 297.327333,16.008 296.703333,17.178 L296.235333,17.178 L296.235333,12.108 L293.297333,12.108 L293.297333,17.178 L291.581333,17.178 L291.581333,12.108 L288.643333,12.108 L288.643333,17.178 L286.433333,17.178 L287.993333,16.19 C287.005333,14.916 285.653333,13.512 284.275333,12.446 L283.235333,13.226 C283.989333,14.526 284.717333,15.982 285.237333,17.178 L281.753333,17.178 L281.753333,18.686 L286.173333,18.686 L286.147333,18.712 C286.771333,19.622 287.395333,20.662 287.967333,21.676 L282.325333,21.676 L282.325333,23.21 L290.723333,23.21 L290.723333,24.562 L283.859333,24.562 L283.859333,26.044 L290.723333,26.044 L290.723333,27.5 L281.259333,27.5 L281.259333,29.034 L288.695333,29.034 C286.485333,31.374 283.729333,32.96 280.609333,34.104 L281.051333,35.352 C285.055333,34.572 288.591333,32.856 290.723333,31.01 L290.723333,36.158 L294.077333,36.158 L294.077333,30.542 C296.391333,32.986 299.979333,34.754 302.969333,35.43 L304.295333,32.05 C301.409333,31.66 297.743333,30.75 294.961333,29.034 Z M288.305333,18.686 L295.403333,18.686 C295.039333,19.7 294.545333,20.818 294.103333,21.676 L289.943333,21.676 L290.957333,20.896 C290.229333,20.142 289.293333,19.362 288.305333,18.686 Z M322.998,12.758 L316.992,12.758 L316.992,14.552 L321.646,14.552 C322.114,17.048 323.232,19.96 325.13,22.378 L311.844,22.378 C314.106,19.83 315.536,16.84 316.238,14.37 L312.728,13.408 C311.636,17.776 310.05,21.546 306.566,24.796 L307.398,25.966 C308.672,25.264 309.816,24.38 310.83,23.418 L310.83,24.172 L314.548,24.172 L314.493166,24.6625907 C314.031119,28.5072753 312.757714,32.3768571 307.346,35.17 L307.84,36.444 C315.016,34.572 317.538,29.268 318.058,24.172 L322.374,24.172 L322.29502,25.8808481 C322.163308,28.4144911 321.999157,30.1654168 321.791156,31.6244004 L321.724,32.076 C321.464,33.792 320.736,33.87 316.654,33.168 L316.29,34.494 C321.49,37.25 324.506,36.366 325.026,33.22 L325.12802,32.5416641 C325.375781,30.7849375 325.68575,27.799 325.936,23.34 C326.742,24.198 327.652,24.952 328.666,25.576 L330.72,22.196 C326.534,20.09 324.038,16.866 322.998,12.758 Z M356.000667,17.932 L356.000667,16.164 L343.806667,16.164 C344.170667,14.942 344.482667,13.72 344.690667,12.524 L341.024667,11.978 C340.816667,13.46 340.530667,14.838 340.192667,16.164 L333.536667,16.164 L333.536667,17.932 L339.672667,17.932 C338.164667,22.742 335.798667,26.408 332.782667,29.164 L333.536667,30.256 C335.070667,29.398 336.500667,28.228 337.800667,26.85 L337.800667,34.234 L341.128667,34.234 L341.128667,24.016 L344.404667,24.016 L344.404667,36.21 L347.836667,36.21 L347.836667,24.016 L351.164667,24.016 L351.164667,30.672 C351.164667,31.894 350.644667,32.076 348.512667,31.738 L348.200667,33.064 C351.398667,34.858 354.466667,34.156 354.466667,31.452 L354.466667,22.378 L347.836667,22.378 L347.836667,18.764 L344.404667,18.764 L344.404667,22.378 L341.076667,22.378 C341.908667,20.974 342.610667,19.466 343.182667,17.932 L356.000667,17.932 Z M48.3773333,68 L48.3773333,65.79 L41.6173333,65.79 L41.6173333,48.89 L37.9513333,48.89 L37.9513333,68 L48.3773333,68 Z M52.65,68.026 L56.316,68.026 L56.316,51.1 L61.022,51.1 L61.022,48.916 L48.048,48.916 L48.048,51.1 L52.65,51.1 L52.65,68.026 Z M67.4786667,68.026 L71.1446667,68.026 L71.1446667,51.1 L75.8506667,51.1 L75.8506667,48.916 L62.8766667,48.916 L62.8766667,51.1 L67.4786667,51.1 L67.4786667,68.026 Z M90.6793333,52.998 L90.6793333,49.878 C89.4313333,49.098 87.4813333,48.4997462 85.2973333,48.4997462 C80.0713333,48.474 76.8993333,52.426 76.8733333,58.406 C76.8473333,64.022 79.6813333,68.442 85.5573333,68.442 C87.7933333,68.442 89.6133333,68.052 90.7053333,67.22 L90.7053333,64.23 C89.3793333,65.4 87.8713333,66.128 86.0253333,66.128 C81.9485333,66.128 80.6684181,62.5822032 80.6433152,58.6963096 L80.6433333,58.458 C80.6433333,54.584 81.8913333,50.788 85.5573333,50.788 C87.3773333,50.788 89.4313333,51.776 90.6793333,52.998 Z M111.314667,68 L111.314667,65.79 L104.554667,65.79 L104.554667,48.89 L100.888667,48.89 L100.888667,68 L111.314667,68 Z M120.631333,68.494 C122.685333,68.494 124.245333,68.104 125.259333,67.35 L125.259333,64.906 C123.959333,65.92 122.529333,66.466 120.839333,66.414 C118.161333,66.362 116.939333,64.672 116.939333,61.708 L126.065333,61.708 C126.127733,61.292 126.156853,60.92592 126.152693,60.5432 L126.143333,60.252 C126.117333,57.34 124.297333,54.038 119.955333,54.038 C115.769333,54.038 113.351333,57.34 113.325333,61.136 C113.299333,65.816 115.769333,68.494 120.631333,68.494 Z M117.017333,59.914 C117.017333,57.834 118.057333,55.884 119.903333,55.884 C121.671333,55.884 122.711333,57.756 122.685333,59.914 L117.017333,59.914 Z M137.098,68.052 L140.4,68.052 C140.218,67.272 140.088,65.946 140.062,65.088 L140.062,58.77 C140.062,55.832 138.216,54.012 134.836,54.038 C132.704,54.064 130.78,54.688 129.428,55.546 L129.428,57.964 C130.858,56.846 132.808,56.092 134.446,56.092 C135.902,56.092 136.656,56.924 136.656,58.588 L136.656,59.628 C136.060167,59.5088333 135.464333,59.4770556 134.508021,59.5326667 L134.238,59.55 C130.39,59.732 128.414,61.604 128.388,63.996 C128.362,66.388 129.662,68.442 133.198,68.364 C135.148,68.338 136.396,67.324 136.916,66.336 C136.916,66.856 136.968,67.402 137.098,68.052 Z M136.734,61.396 L136.734,62.93 C136.708,63.918 136.63,64.672 135.928,65.426 C135.2,66.102 134.472,66.206 133.666,66.154 C132.392,66.076 131.716,65.218 131.716,63.762 C131.742,62.176 133.042,61.5 134.472,61.344 C135.304,61.24 136.084,61.266 136.734,61.396 Z M143.372667,68.026 L146.830667,68.026 L146.830667,61.136 C146.830667,59.524 147.688667,57.678 149.560667,57.184 C150.158667,57.028 150.600667,57.028 151.250667,57.262 L151.250667,54.142 C150.574667,54.012 150.080667,54.038 149.586667,54.142 C148.520667,54.324 147.116667,55.494 146.622667,56.95 C146.674667,56.222 146.648667,55.26 146.648667,54.506 L143.372667,54.506 L143.372667,68.026 Z M161.919333,68 L165.377333,68 L165.377333,58.9 C165.377333,56.144 163.843333,54.142 160.801333,54.116 C158.695333,54.09 157.083333,55.286 156.537333,56.612 L156.537333,54.454 L153.339333,54.454 L153.339333,68.026 L156.771333,68.026 L156.771333,60.798 C156.771333,58.276 157.551333,56.482 159.683333,56.482 C161.373333,56.482 161.919333,57.704 161.919333,59.186 L161.919333,68 Z M175.5,68.494 C177.554,68.494 179.114,68.104 180.128,67.35 L180.128,64.906 C178.828,65.92 177.398,66.466 175.708,66.414 C173.03,66.362 171.808,64.672 171.808,61.708 L180.934,61.708 C181.012,61.188 181.038,60.746 181.012,60.252 C180.986,57.34 179.166,54.038 174.824,54.038 C170.638,54.038 168.22,57.34 168.194,61.136 C168.168,65.816 170.638,68.494 175.5,68.494 Z M171.886,59.914 C171.886,57.834 172.926,55.884 174.772,55.884 C176.54,55.884 177.58,57.756 177.554,59.914 L171.886,59.914 Z M183.828667,68.026 L187.286667,68.026 L187.286667,61.136 C187.286667,59.524 188.144667,57.678 190.016667,57.184 C190.614667,57.028 191.056667,57.028 191.706667,57.262 L191.706667,54.142 C191.030667,54.012 190.536667,54.038 190.042667,54.142 C188.976667,54.324 187.572667,55.494 187.078667,56.95 C187.130667,56.222 187.104667,55.26 187.104667,54.506 L183.828667,54.506 L183.828667,68.026 Z M207.506,68 C211.172,67.844 213.59,66.232 214.812,64.152 C215.748,62.566 216.138,60.746 216.164,58.354 C216.164,56.248 215.774,54.402 214.916,52.946 C213.616,50.684 211.198,49.098 207.298,48.89 C205.27,48.786 202.592,48.916 200.772,49.072 L200.772,67.792 C202.826,68.026 205.14,68.104 207.506,68 Z M206.830188,65.7461151 L206.57,65.764 C205.92,65.816 205.114,65.79 204.412,65.66 L204.412,51.178 C204.924571,51.1111429 205.532653,51.0824898 206.187125,51.108414 L206.518,51.126 C210.808,51.308 212.472,53.57 212.472,58.38 C212.472,63.24668 211.023717,65.4165568 206.830188,65.7461151 L206.830188,65.7461151 Z M226.234667,68.494 C228.288667,68.494 229.848667,68.104 230.862667,67.35 L230.862667,64.906 C229.562667,65.92 228.132667,66.466 226.442667,66.414 C223.764667,66.362 222.542667,64.672 222.542667,61.708 L231.668667,61.708 C231.746667,61.188 231.772667,60.746 231.746667,60.252 C231.720667,57.34 229.900667,54.038 225.558667,54.038 C221.372667,54.038 218.954667,57.34 218.928667,61.136 C218.902667,65.816 221.372667,68.494 226.234667,68.494 Z M222.620667,59.914 C222.620667,57.834 223.660667,55.884 225.506667,55.884 C227.274667,55.884 228.314667,57.756 228.288667,59.914 L222.620667,59.914 Z M234.667333,68 L238.099333,68 L238.099333,60.512 C238.099333,58.094 238.827333,56.43 240.543333,56.43 C242.181333,56.43 242.805333,57.808 242.805333,59.446 L242.805333,68 L246.263333,68 L246.263333,60.538 C246.263333,58.146 246.939333,56.43 248.759333,56.43 C250.397333,56.43 250.969333,57.6 250.969333,59.498 L250.969333,68.026 L254.401333,68.026 L254.401333,59.134 C254.401333,56.144 252.997333,54.09 249.747333,54.09 C247.693333,54.09 246.185333,55.442 245.587333,56.898 C245.041333,55.234 243.637333,54.09 241.427333,54.116 C239.581333,54.116 238.255333,55.468 237.891333,56.586 L237.891333,54.454 L234.667333,54.454 L234.667333,68 Z M270.322,61.266 C270.322,57.86 268.502,54.116 263.874,54.09 C259.35,54.09 257.218,57.782 257.218,61.292 C257.218,65.088 259.168,68.442 263.692,68.468 C268.398,68.494 270.322,65.166 270.322,61.266 Z M266.812,61.318 C266.812,63.892 266.084,66.57 263.874,66.57 C261.804706,66.57 260.788614,63.9982266 260.730634,61.5409945 L260.728,61.318 C260.702,58.978 261.456,55.988 263.666,56.014 C265.876,56.014 266.786,59.004 266.812,61.318 Z M278.598667,74.11 C284.552667,74.188 286.060667,70.808 285.956667,65.868 L285.956667,54.454 L282.706667,54.454 L282.706667,56.144 C282.030667,54.844 280.600667,53.986 278.806667,53.986 C274.932667,54.012 272.566667,57.106 272.566667,61.058 C272.540667,65.27 274.542667,68.156 278.806667,68.156 C280.366667,68.156 281.952667,67.376 282.576667,66.232 C282.535067,66.856 282.543387,67.38016 282.508443,67.950912 L282.472667,68.39 C282.342667,70.314 281.302667,71.952 278.702667,71.952 C276.908667,71.9 275.400667,71.25 273.866667,70.158 L273.866667,72.602 C275.192667,73.512 277.038667,74.058 278.598667,74.11 Z M279.352667,66.102 C277.246667,66.076 276.050667,63.814 276.050667,61.11 C276.050667,58.172 277.220667,55.936 279.482667,55.936 C281.380667,55.936 282.446667,57.912 282.576667,60.226 L282.576667,61.5 C282.524667,64.36 281.458667,66.128 279.352667,66.102 Z M289.397333,68.026 L292.855333,68.026 L292.855333,61.136 C292.855333,59.524 293.713333,57.678 295.585333,57.184 C296.183333,57.028 296.625333,57.028 297.275333,57.262 L297.275333,54.142 C296.599333,54.012 296.105333,54.038 295.611333,54.142 C294.545333,54.324 293.141333,55.494 292.647333,56.95 C292.699333,56.222 292.673333,55.26 292.673333,54.506 L289.397333,54.506 L289.397333,68.026 Z M307.424,68.052 L310.726,68.052 C310.544,67.272 310.414,65.946 310.388,65.088 L310.388,58.77 C310.388,55.832 308.542,54.012 305.162,54.038 C303.03,54.064 301.106,54.688 299.754,55.546 L299.754,57.964 C301.184,56.846 303.134,56.092 304.772,56.092 C306.228,56.092 306.982,56.924 306.982,58.588 L306.982,59.628 C306.386167,59.5088333 305.790333,59.4770556 304.834021,59.5326667 L304.564,59.55 C300.716,59.732 298.74,61.604 298.714,63.996 C298.688,66.388 299.988,68.442 303.524,68.364 C305.474,68.338 306.722,67.324 307.242,66.336 C307.242,66.856 307.294,67.402 307.424,68.052 Z M307.06,61.396 L307.06,62.93 C307.034,63.918 306.956,64.672 306.254,65.426 C305.526,66.102 304.798,66.206 303.992,66.154 C302.718,66.076 302.042,65.218 302.042,63.762 C302.068,62.176 303.368,61.5 304.798,61.344 C305.63,61.24 306.41,61.266 307.06,61.396 Z M320.926667,54.012 C318.976667,54.012 317.572667,55.078 317.052667,56.196 L317.052667,54.48 L313.802667,54.48 L313.802667,74.136 L317.234667,74.136 L317.234667,66.518 C318.066667,67.662 319.444667,68.338 321.186667,68.312 C324.436667,68.286 326.828667,65.608 326.854667,61.292 C326.880667,56.716 324.722667,54.012 320.926667,54.012 Z M320.172667,56.04 C322.330667,56.066 323.344667,58.146 323.344667,61.214 C323.344667,64.1 322.278667,66.154 320.120667,66.18 C318.248667,66.18 317.052667,64.62 316.922667,61.812 L316.922667,60.694 C317.052667,57.912 318.326667,56.066 320.172667,56.04 Z M338.433333,68 L341.865333,68 L341.865333,58.796 C341.865333,56.04 340.149333,54.142 337.159333,54.116 C335.261333,54.09 333.753333,55.208 333.181333,56.326 L333.181333,48.058 L329.723333,48.058 L329.723333,68 L333.233333,68 L333.233333,60.642 C333.233333,58.146 334.065333,56.378 336.197333,56.378 C337.809333,56.404 338.433333,57.652 338.433333,59.03 L338.433333,68 Z M347.204,52.374 C348.296,52.374 349.206,51.464 349.206,50.372 C349.206,49.306 348.296,48.396 347.204,48.396 C346.086,48.396 345.15,49.306 345.15,50.372 C345.15,51.464 346.086,52.374 347.204,52.374 Z M345.462,68 L348.894,68 L348.894,54.506 L345.462,54.506 L345.462,68 Z M363.228667,67.324 L363.228667,64.88 C361.980667,66.024 361.096667,66.44 359.354667,66.44 C356.390667,66.466 355.480667,64.152 355.428667,61.292 L355.430812,60.92795 C355.483145,58.6608547 356.281333,56.0373333 359.068667,55.988 C360.680667,55.962 361.902667,56.586 363.176667,57.834 L363.176667,55.26 C361.980667,54.428 360.498667,53.9857357 358.626667,53.9857357 C354.050667,53.96 351.918667,57.756 351.918667,61.266 C351.918667,65.608 354.154667,68.442 358.886667,68.494 C360.758667,68.494 362.162667,68.13 363.228667,67.324 Z M374.989333,64.204 C374.963333,62.202 373.221333,61.084 370.907333,60.018 L370.4847,59.8277322 C369.091855,59.1820189 368.593333,58.7247826 368.593333,57.704 C368.593333,56.742 369.425333,56.066 370.751333,56.04 C371.583333,56.04 372.779333,56.378 374.183333,57.47 L374.183333,54.922 C373.039333,54.298 371.765333,54.038 370.621333,54.038 C367.293333,54.038 365.343333,55.806 365.343333,58.146 C365.343333,60.2277931 366.673043,61.160176 368.744935,62.0552555 L369.217333,62.254 C370.673333,62.852 371.635333,63.554 371.635333,64.49 C371.635333,65.478 371.115333,66.492 369.269333,66.466 C367.839333,66.414 366.591333,65.946 365.213333,65.062 L365.213333,67.48 C366.461333,68.13 368.125333,68.494 369.685333,68.468 C373.273333,68.442 374.989333,66.856 374.989333,64.204 Z M388.084667,71.276 L390.034667,71.276 C387.395667,67.4808667 386.627424,63.2970044 386.555655,59.3585273 L386.550667,58.952 C386.498667,55.26 387.330667,50.632 389.930667,46.732 L387.980667,46.732 C384.808667,50.164 383.274667,54.688 383.274667,58.952 C383.274667,63.372 384.860667,67.948 388.084667,71.276 Z M399.247333,68.416 C403.069333,68.468 405.201333,65.686 405.175333,61.136 C405.149333,56.794 402.757333,54.116 399.507333,54.116 C397.765333,54.09 396.387333,54.74 395.581333,55.884 L395.581333,48.084 L392.123333,48.084 L392.123333,68.026 L395.373333,68.026 L395.373333,66.232 C395.919333,67.35 397.245333,68.416 399.247333,68.416 Z M398.493333,66.388 C396.699333,66.336 395.373333,64.49 395.243333,61.708 L395.243333,60.59 C395.373333,57.782 396.569333,56.222 398.441333,56.248 C400.599333,56.248 401.665333,58.328 401.665333,61.188 C401.665333,64.256 400.859333,66.362 398.493333,66.388 Z M406.64,73.356 C408.98,74.084 411.32,73.642 412.516,71.744 C413.348,70.6 414.128,68.988 414.908,66.986 L419.51,54.48 L416.26,54.48 L414.414,60.876 C414.128,61.786 413.79,62.956 413.53,63.97 L413.374,63.97 C413.062,62.956 412.62,61.708 412.256,60.72 L410.124,54.48 L406.302,54.48 L411.97,67.48 C411.58,68.754 410.93,69.95 410.488,70.574 C409.63,71.692 408.382,71.536 406.64,70.86 L406.64,73.356 Z M436.583333,68.4681994 C442.667333,68.494 445.189333,63.45 445.189333,58.328 C445.189333,53.102 442.745333,48.5 436.635333,48.5 C430.655333,48.5 427.977333,53.284 427.977333,58.328 C427.977333,63.502 430.551333,68.4681994 436.583333,68.4681994 Z M436.557333,66.154 C433.463333,66.154 431.747333,62.436 431.747333,58.458 C431.747333,54.428 433.255333,50.736 436.453333,50.736 C439.729333,50.736 441.419333,54.428 441.419333,58.406 C441.445333,62.41 439.755333,66.154 436.557333,66.154 Z M459.03,67.324 L459.03,64.88 C457.782,66.024 456.898,66.44 455.156,66.44 C452.192,66.466 451.282,64.152 451.23,61.292 C451.204,58.952 451.932,56.04 454.87,55.988 C456.482,55.962 457.704,56.586 458.978,57.834 L458.978,55.26 C457.782,54.428 456.3,53.9857357 454.428,53.9857357 C449.852,53.96 447.72,57.756 447.72,61.266 C447.72,65.608 449.956,68.442 454.688,68.494 C456.56,68.494 457.964,68.13 459.03,67.324 Z M472.558667,67.324 L472.558667,64.88 C471.310667,66.024 470.426667,66.44 468.684667,66.44 C465.720667,66.466 464.810667,64.152 464.758667,61.292 L464.760812,60.92795 C464.813145,58.6608547 465.611333,56.0373333 468.398667,55.988 C470.010667,55.962 471.232667,56.586 472.506667,57.834 L472.506667,55.26 C471.310667,54.428 469.828667,53.9857357 467.956667,53.9857357 C463.380667,53.96 461.248667,57.756 461.248667,61.266 C461.248667,65.608 463.484667,68.442 468.216667,68.494 C470.088667,68.494 471.492667,68.13 472.558667,67.324 Z M478.755333,54.48 L475.297333,54.48 L475.297333,63.814 C475.297333,66.752 476.805333,68.338 479.821333,68.364 C481.927333,68.364 483.487333,67.194 484.033333,65.946 L484.033333,68 L487.283333,68 L487.283333,54.48 L483.851333,54.48 L483.851333,61.682 C483.851333,64.152 482.967333,66.076 480.991333,66.076 C479.249333,66.076 478.755333,64.88 478.755333,63.294 L478.755333,54.48 Z M497.978,54.012 C496.028,54.012 494.624,55.078 494.104,56.196 L494.104,54.48 L490.854,54.48 L490.854,74.136 L494.286,74.136 L494.286,66.518 C495.118,67.662 496.496,68.338 498.238,68.312 C501.488,68.286 503.88,65.608 503.906,61.292 C503.932,56.716 501.774,54.012 497.978,54.012 Z M497.224,56.04 C499.382,56.066 500.396,58.146 500.396,61.214 C500.396,64.1 499.33,66.154 497.172,66.18 C495.3,66.18 494.104,64.62 493.974,61.812 L493.974,60.694 C494.104,57.912 495.378,56.066 497.224,56.04 Z M514.808667,68.052 L518.110667,68.052 C517.928667,67.272 517.798667,65.946 517.772667,65.088 L517.772667,58.77 C517.772667,55.832 515.926667,54.012 512.546667,54.038 C510.414667,54.064 508.490667,54.688 507.138667,55.546 L507.138667,57.964 C508.568667,56.846 510.518667,56.092 512.156667,56.092 C513.612667,56.092 514.366667,56.924 514.366667,58.588 L514.366667,59.628 C513.716667,59.498 513.066667,59.472 511.948667,59.55 C508.100667,59.732 506.124667,61.604 506.098667,63.996 C506.072667,66.388 507.372667,68.442 510.908667,68.364 C512.858667,68.338 514.106667,67.324 514.626667,66.336 C514.626667,66.856 514.678667,67.402 514.808667,68.052 Z M514.444667,61.396 L514.444667,62.93 C514.418667,63.918 514.340667,64.672 513.638667,65.426 C512.910667,66.102 512.182667,66.206 511.376667,66.154 C510.102667,66.076 509.426667,65.218 509.426667,63.762 C509.452667,62.176 510.752667,61.5 512.182667,61.344 C513.014667,61.24 513.794667,61.266 514.444667,61.396 Z M528.311333,67.974 L528.311333,65.79 C527.895333,66.05 527.583333,66.128 527.089333,66.128 C525.764333,66.128 525.448949,65.503 525.426648,63.9525192 L525.425333,56.352 L528.181333,56.352 L528.181333,54.506 L525.425333,54.506 L525.425333,50.892 L522.019333,50.892 L522.019333,54.506 L520.017333,54.506 L520.017333,56.352 L522.019333,56.352 L522.019333,63.996 C522.019333,65.556 522.357333,66.544 522.955333,67.272 C523.501333,67.948 524.567333,68.39 525.997333,68.39 C526.907333,68.39 527.687333,68.234 528.311333,67.974 Z M532.662,52.374 C533.754,52.374 534.664,51.464 534.664,50.372 C534.664,49.306 533.754,48.396 532.662,48.396 C531.544,48.396 530.608,49.306 530.608,50.372 C530.608,51.464 531.544,52.374 532.662,52.374 Z M530.92,68 L534.352,68 L534.352,54.506 L530.92,54.506 L530.92,68 Z M550.480667,61.266 C550.480667,57.86 548.660667,54.116 544.032667,54.09 C539.508667,54.09 537.376667,57.782 537.376667,61.292 C537.376667,65.088 539.326667,68.442 543.850667,68.468 C548.556667,68.494 550.480667,65.166 550.480667,61.266 Z M546.970667,61.318 C546.970667,63.892 546.242667,66.57 544.032667,66.57 C541.963373,66.57 540.947281,63.9982266 540.889301,61.5409945 L540.886667,61.318 C540.860667,58.978 541.614667,55.988 543.824667,56.014 C546.034667,56.014 546.944667,59.004 546.970667,61.318 Z M561.955333,68 L565.413333,68 L565.413333,58.9 C565.413333,56.144 563.879333,54.142 560.837333,54.116 C558.731333,54.09 557.119333,55.286 556.573333,56.612 L556.573333,54.454 L553.375333,54.454 L553.375333,68.026 L556.807333,68.026 L556.807333,60.798 C556.807333,58.276 557.587333,56.482 559.719333,56.482 C561.409333,56.482 561.955333,57.704 561.955333,59.186 L561.955333,68 Z M569.296,71.276 L567.346,71.276 C569.985,67.4808667 570.753242,63.2970044 570.825012,59.3585273 L570.83,58.952 C570.882,55.26 570.05,50.632 567.45,46.732 L569.4,46.732 C572.572,50.164 574.08,54.688 574.08,58.952 C574.08,63.372 572.52,67.948 569.296,71.276 Z" id="職業分布LTTCLearnerDemographics(byOccupation)" fill="#002C36" fill-rule="nonzero"></path>
        </g>
    </g>
</svg>