<svg xmlns="http://www.w3.org/2000/svg" xmlns:xlink="http://www.w3.org/1999/xlink" width="734.999" height="590" viewBox="0 0 734.999 590">
  <defs>
    <clipPath id="clip-path">
      <path id="Clip_48" data-name="Clip 48" d="M0,0H48.655V46.7H0Z" transform="translate(0 0.193)" fill="none"/>
    </clipPath>
  </defs>
  <g id="wish01" transform="translate(0 0)">
    <path id="Fill_1" data-name="Fill 1" d="M.91,1.093Q.8,7.014.681,12.934A165.608,165.608,0,0,0,36,21q-.088-6.019-.175-12.04a2.7,2.7,0,0,0-.358-1.592,2.448,2.448,0,0,0-1.438-.747L18.571,2.676C12.476,1.121,6.25-.446,0,.117" transform="translate(184 23)" fill="#a9ce52"/>
    <path id="Fill_3" data-name="Fill 3" d="M37.112,22a.675.675,0,0,1-.075,0A178.853,178.853,0,0,1,1.353,14.243a.976.976,0,0,1-.707-.927Q.723,9.511.8,5.7L.875,2.012H.846A.828.828,0,0,1,0,1.156.99.99,0,0,1,.924.091C1.774.031,2.652,0,3.536,0c6.706,0,13.4,1.731,19.882,3.405,1.513.391,3.076.8,4.6,1.166.8.195,1.627.378,2.425.556,1.615.359,3.283.73,4.871,1.22a3.074,3.074,0,0,1,2.256,1.62,9.188,9.188,0,0,1,.353,3.954c-.025.51-.049.991-.043,1.433q.03,1.934.059,3.869.029,1.905.058,3.811a1.023,1.023,0,0,1-.3.7A.831.831,0,0,1,37.112,22ZM3.383,1.934c-.195,0-.392,0-.585,0a.2.2,0,0,0,0,.023.207.207,0,0,1,0,.025Q2.694,7.3,2.587,12.621a176.342,176.342,0,0,0,33.47,7.335Q36.029,18.1,36,16.246V16.2l-.029-1.89c-.005-.354.014-.768.035-1.206.084-1.791.189-4.019-1.2-4.905A5.45,5.45,0,0,0,32.9,7.686c-.307-.047-.6-.092-.832-.149Q30.7,7.2,29.331,6.871L26.595,6.2l-.138-.033-2.6-.633c-.908-.221-1.833-.452-2.727-.675C15.363,3.423,9.4,1.934,3.383,1.934Z" transform="translate(183 23)" fill="#002d37"/>
    <path id="Fill_5" data-name="Fill 5" d="M.473,9.515,7.287,0c1.976,4.836,5.778,8.607,8.994,12.7A60.845,60.845,0,0,1,22,21.423,46.512,46.512,0,0,0,15.664,27C10.515,23.446,6.185,18.822,1.9,14.236.861,13.126-.258,11.748.053,10.25" transform="translate(367 1)" fill="#c5576a"/>
    <path id="Fill_7" data-name="Fill 7" d="M16.635,28a.821.821,0,0,1-.463-.131A70.121,70.121,0,0,1,6.3,19.589c-.426-.419-.915-.859-1.434-1.325C2.622,16.248-.166,13.74.008,10.854a.913.913,0,0,1,.378-.707.846.846,0,0,1,.177-.484L7.407.465A1.231,1.231,0,0,1,8.354,0a.766.766,0,0,1,.738.465c1.633,3.628,4.248,6.663,6.776,9.6q.4.467.805.936a65.888,65.888,0,0,1,7.2,10.174.964.964,0,0,1-.349,1.3,49.332,49.332,0,0,0-6.168,5.242A1.048,1.048,0,0,1,16.635,28ZM8.077,2.789,6.637,4.725l-4.39,5.9a1.019,1.019,0,0,1-.289.264c-.081,1.694,1.341,3.047,2.6,4.24.262.249.51.485.738.717,1.059,1.08,2.315,2.35,3.594,3.573a65.025,65.025,0,0,0,7.677,6.389,53.043,53.043,0,0,1,5.2-4.4A70.064,70.064,0,0,0,14.233,11.12,46.811,46.811,0,0,1,8.077,2.789Z" transform="translate(366)" fill="#002d37"/>
    <path id="Fill_9" data-name="Fill 9" d="M28.06,0,0,18.729A19.994,19.994,0,0,1,8.83,26L36.053,9.226c.44-.271.93-.623.947-1.133a1.583,1.583,0,0,0-.662-1.1Q32.549,3.5,28.476.311" transform="translate(697 164)" fill="#c5576a"/>
    <path id="Fill_11" data-name="Fill 11" d="M9.851,28a1.092,1.092,0,0,1-.873-.479,20.123,20.123,0,0,0-8.5-6.936A.772.772,0,0,1,0,19.921a1.129,1.129,0,0,1,.475-1L28.606.167A.912.912,0,0,1,29.115,0a.9.9,0,0,1,.746.447,1.053,1.053,0,0,1,.35.182c1.831,1.44,3.463,2.784,4.991,4.108.287.249.61.5.952.772a9.571,9.571,0,0,1,2.6,2.62,1.851,1.851,0,0,1,.163,1.463c-.436,1.381-2.466,2.423-3.948,3.183-.432.222-.8.413-1.082.583L22.1,20.612,10.319,27.867A.883.883,0,0,1,9.851,28ZM29.066,2.181,20.345,8l-.31.206L2.905,19.625a21.867,21.867,0,0,1,7.167,6.124L28.349,14.5l1.89-1.164.079-.049,2.992-1.842c.223-.138.512-.288.817-.447.958-.5,2.15-1.122,2.368-1.876a.908.908,0,0,0-.108-.731,9.7,9.7,0,0,0-2.512-2.33c-.385-.286-.748-.556-1.041-.8C31.7,4.3,30.472,3.29,29.066,2.181Z" transform="translate(696 163)" fill="#002d37"/>
    <path id="Fill_13" data-name="Fill 13" d="M1.36,24.193,22.057.483A1.224,1.224,0,0,1,22.71.01a1.249,1.249,0,0,1,.921.367L33,7.606A321,321,0,0,0,8.363,36L0,24.882" transform="translate(119 370)" fill="#f4d924"/>
    <path id="Fill_15" data-name="Fill 15" d="M9.123,38a1.022,1.022,0,0,1-.823-.465Q4.24,31.943.182,26.349a.814.814,0,0,1-.159-.691.956.956,0,0,1,.532-.6c2.785-3.3,5.925-6.849,8.962-10.283,3.117-3.524,6.339-7.168,9.18-10.542.281-.333.574-.745.884-1.18C20.6,1.624,21.761,0,23.229,0a2.328,2.328,0,0,1,1.2.365,47,47,0,0,1,6.312,4.9c.977.85,1.986,1.73,2.976,2.521A.772.772,0,0,1,34,8.352a1.122,1.122,0,0,1-.277.815A326.878,326.878,0,0,0,9.958,37.535,1.047,1.047,0,0,1,9.123,38ZM23.218,2.168c-.383,0-.613.314-.931.75-.117.161-.25.342-.406.527L20.359,5.252,17.011,9.227C14.675,12,11.965,15.036,9.344,17.971c-2.394,2.681-4.87,5.453-7.052,8.018l3.426,4.722,3.426,4.722A331.273,331.273,0,0,1,31.638,8.573c-.663-.548-1.338-1.127-1.991-1.686a52.024,52.024,0,0,0-5.678-4.434A1.475,1.475,0,0,0,23.218,2.168Z" transform="translate(118 369)" fill="#002d37"/>
    <path id="Fill_17" data-name="Fill 17" d="M.316,7.809A48.8,48.8,0,0,1,8.154,0Q17.947,9.9,28,19.512L21.608,28Q10.45,18.363,0,7.881" transform="translate(546 295)" fill="#a9ce52"/>
    <path id="Fill_19" data-name="Fill 19" d="M22.714,29a1.236,1.236,0,0,1-.754-.28C14.537,22.52,7.247,15.972.292,9.256a.861.861,0,0,1-.265-.851,1.078,1.078,0,0,1,.732-.749A52.156,52.156,0,0,1,8.469.27,1.181,1.181,0,0,1,9.187,0a.9.9,0,0,1,.639.27c6.5,6.33,13.191,12.681,19.9,18.876a.993.993,0,0,1,0,1.363l-2.81,3.6-3.6,4.612A.741.741,0,0,1,22.714,29ZM9.09,2.236h0A52.219,52.219,0,0,0,2.444,8.649C8.893,14.842,15.641,20.9,22.5,26.664l3.615-4.631,1.637-2.1C21.492,14.144,15.212,8.189,9.09,2.236Z" transform="translate(545 294)" fill="#002d37"/>
    <path id="Fill_21" data-name="Fill 21" d="M.38,7.123A23.862,23.862,0,0,1,7.333,0,150.036,150.036,0,0,0,16,22.716,57.309,57.309,0,0,1,7.921,28Q4.218,17.405,0,7" transform="translate(532 177)" fill="#c5576a"/>
    <path id="Fill_23" data-name="Fill 23" d="M8.952,31h0a1.006,1.006,0,0,1-.926-.713C5.549,22.991,2.873,15.662.072,8.5a.8.8,0,0,1,.047-.759.991.991,0,0,1,.794-.406A27.035,27.035,0,0,1,7.873.145.768.768,0,0,1,8.327,0a1.035,1.035,0,0,1,.946.728,163.5,163.5,0,0,0,8.607,23.327,1.006,1.006,0,0,1-.149,1.182,63.827,63.827,0,0,1-8.3,5.633A.949.949,0,0,1,8.952,31ZM7.83,2.584a24.6,24.6,0,0,0-5.6,6.233c2.52,6.475,4.953,13.13,7.23,19.78a61.353,61.353,0,0,0,6.418-4.353A166.918,166.918,0,0,1,7.83,2.584Z" transform="translate(531 175)" fill="#002d37"/>
    <path id="Fill_25" data-name="Fill 25" d="M.723,10.158,14.961,0,29,47.083A34.276,34.276,0,0,0,13.077,60a65.4,65.4,0,0,0-2.46-11.24L0,11.01" transform="translate(179 129)" fill="#c5576a"/>
    <path id="Fill_27" data-name="Fill 27" d="M14.1,62a1.03,1.03,0,0,1-.99-.95c-.686-6.147-2.559-12.29-4.37-18.231-.614-2.015-1.249-4.1-1.821-6.131L3.479,24.474.041,12.261a.892.892,0,0,1,.081-.722,1.014,1.014,0,0,1,.668-.448.964.964,0,0,1,.42-.775L15.475.147A.773.773,0,0,1,15.932,0a1.054,1.054,0,0,1,.962.724Q23.926,24.291,30.96,47.859a.991.991,0,0,1-.675,1.19A34.029,34.029,0,0,0,14.909,61.537.972.972,0,0,1,14.1,62ZM15.422,2.549,11.059,5.66l-.031.022-8.843,6.3A1.086,1.086,0,0,1,2,12.092q3.518,12.5,7.038,25c.527,1.871,1.1,3.783,1.658,5.632a122.28,122.28,0,0,1,4,15.834A36.079,36.079,0,0,1,28.859,47.574L23.788,30.582Z" transform="translate(178 128)" fill="#002d37"/>
    <path id="Fill_29" data-name="Fill 29" d="M.473,9.515,7.287,0c1.977,4.836,5.778,8.607,8.994,12.7A60.845,60.845,0,0,1,22,21.423,46.541,46.541,0,0,0,15.664,27C10.515,23.446,6.186,18.822,1.9,14.236.861,13.126-.258,11.748.053,10.25" transform="translate(258 59)" fill="#c5576a"/>
    <path id="Fill_31" data-name="Fill 31" d="M16.635,28a.821.821,0,0,1-.463-.131A70.063,70.063,0,0,1,6.3,19.589c-.426-.419-.916-.859-1.434-1.326C2.622,16.247-.166,13.739.008,10.854a.914.914,0,0,1,.378-.707.832.832,0,0,1,.178-.484L7.408.465A1.229,1.229,0,0,1,8.354,0a.764.764,0,0,1,.736.465c1.634,3.629,4.25,6.664,6.779,9.6l.012.013q.4.46.792.921a65.853,65.853,0,0,1,7.2,10.174.963.963,0,0,1-.35,1.3,49.4,49.4,0,0,0-6.167,5.242A1.05,1.05,0,0,1,16.635,28ZM8.078,2.789l-5.83,7.835a1.028,1.028,0,0,1-.289.265c-.081,1.694,1.342,3.047,2.6,4.24.262.249.51.485.737.717C6.42,17,7.636,18.223,8.887,19.418a65.189,65.189,0,0,0,7.677,6.391,52.815,52.815,0,0,1,5.2-4.4,70.185,70.185,0,0,0-7.527-10.292A46.871,46.871,0,0,1,8.078,2.789Z" transform="translate(257 58)" fill="#002d37"/>
    <path id="Fill_33" data-name="Fill 33" d="M17.247.137,0,9.932l3.1,4.693c.111.168.247.353.444.374a.677.677,0,0,0,.365-.105L22,5.7A29.68,29.68,0,0,0,18.171,0" transform="translate(424 297)" fill="#f4d924"/>
    <path id="Fill_35" data-name="Fill 35" d="M4.613,16h0a1.762,1.762,0,0,1-.826-.194,3.3,3.3,0,0,1-1.045-1.242c-.095-.158-.184-.306-.269-.427L1.3,12.474.134,10.812a.8.8,0,0,1-.109-.655.941.941,0,0,1,.452-.61L9.137,4.918,9.5,4.725,17.8.29a.979.979,0,0,1,.463-.121.908.908,0,0,1,.382.085A.937.937,0,0,1,19.259,0a.828.828,0,0,1,.626.3,32.763,32.763,0,0,1,4,5.574.983.983,0,0,1,.076.767.808.808,0,0,1-.419.5L8.265,14.45c-.257.123-.55.292-.86.47A6.227,6.227,0,0,1,4.613,16ZM18.76,1.888,12.272,5.356l-.1.053L2.316,10.678l.109.173a11.971,11.971,0,0,0,1.442,1.984l.194.2c.426.443.6.626.956.626a4.6,4.6,0,0,0,1.04-.215,18.033,18.033,0,0,0,3.678-1.681c.59-.323,1.147-.628,1.688-.887q5.145-2.46,10.288-4.922A30.013,30.013,0,0,0,18.76,1.888Z" transform="translate(423 296)" fill="#002d37"/>
    <path id="Fill_37" data-name="Fill 37" d="M1.127,1.064a75.908,75.908,0,0,0-1.109,9.4A3.135,3.135,0,0,0,.338,12.4a3.245,3.245,0,0,0,1.776,1.065L27.479,21.92a.811.811,0,0,0,.546.048c.237-.094.323-.376.381-.622q1.132-4.814,2.264-9.629c.316-1.345.607-2.862-.142-4.026s-2.222-1.533-3.564-1.825Q14.311,3.11,1.739,0" transform="translate(329 312)" fill="#25a5da"/>
    <path id="Fill_39" data-name="Fill 39" d="M28.885,24a3.692,3.692,0,0,1-.6-.059,22.732,22.732,0,0,1-4.3-1.363c-.709-.276-1.378-.537-2.044-.761L9.24,17.571c-.7-.235-1.423-.462-2.121-.683-1.4-.442-2.85-.9-4.226-1.441A3.856,3.856,0,0,1,.275,13.325,8.972,8.972,0,0,1,.208,9.208C.256,8.842.3,8.5.335,8.168c.2-2,.487-4.09.888-6.385a.784.784,0,0,1,.6-.679A1.107,1.107,0,0,1,2.115.29.89.89,0,0,1,2.778,0a1.077,1.077,0,0,1,.258.033C7.849,1.226,12.562,2.358,17.042,3.4c1.413.328,2.889.613,4.316.89a63.333,63.333,0,0,1,8.283,1.991,4.9,4.9,0,0,1,2.719,2,5.075,5.075,0,0,1,.584,3.336,31.977,31.977,0,0,1-.87,4.074c-.146.564-.3,1.146-.431,1.716-.122.519-.216,1.118-.316,1.752a11.909,11.909,0,0,1-1.094,4.013A1.443,1.443,0,0,1,28.885,24ZM3.118,2.057a1.118,1.118,0,0,1-.013.243c-.372,2.128-.64,4.048-.82,5.868-.033.336-.082.677-.128,1.008-.243,1.713-.473,3.33,1.255,4.394a11.845,11.845,0,0,0,3.063,1.1c.527.139,1.024.269,1.471.419L10.97,16.1l1.509.5L22,19.788l2.167.725.1.033,2.267.758c.077.026.372.161.712.317a12.625,12.625,0,0,0,1.275.547h.007a5.7,5.7,0,0,0,.428-1.717c.037-.221.067-.4.087-.482q.567-2.418,1.133-4.838c.089-.378.205-.779.329-1.2a10.109,10.109,0,0,0,.584-3.269c-.192-2.694-4.244-3.329-7.2-3.793-.653-.1-1.27-.2-1.746-.306C16.03,5.182,9.63,3.668,3.118,2.057Z" transform="translate(328 311)" fill="#002d37"/>
    <path id="Fill_41" data-name="Fill 41" d="M0,8.837Q3.592,24.418,7.184,40a72.69,72.69,0,0,0,14.185-6.384,3.338,3.338,0,0,0,1.451-1.311,3.452,3.452,0,0,0-.128-2.442L14.079,1.683A2.293,2.293,0,0,0,13.016.09a2.288,2.288,0,0,0-2.041.569L2.663,6.341" transform="translate(327 400)" fill="#25a5da"/>
    <path id="Fill_43" data-name="Fill 43" d="M8.2,42a1,1,0,0,1-.943-.719Q3.642,25.65.029,10.018a1.014,1.014,0,0,1-.01-.433.958.958,0,0,1,.418-1c1.081-.736,2.569-1.83,4.145-2.989C7.013,3.8,9.768,1.78,11.519.716A4.187,4.187,0,0,1,13.628,0a2.267,2.267,0,0,1,1.948,1.164,9.482,9.482,0,0,1,1.037,2.812c.1.38.189.738.295,1.083l.7,2.28.029.095.67,2.185L21.243,19.2l1.09,3.556.009.029q.919,3,1.836,5.992c.059.191.119.382.179.572.657,2.073,1.278,4.032-.63,5.606a25.964,25.964,0,0,1-5.768,3.2c-.407.183-.791.356-1.172.532a80.065,80.065,0,0,1-8.335,3.28A.792.792,0,0,1,8.2,42ZM13.062,2.351a4.065,4.065,0,0,0-2.227,1.133c-.217.171-.422.332-.617.465C9.207,4.637,7.493,5.884,5.835,7.09,4.444,8.1,3.006,9.148,1.985,9.864L8.9,39.756a74,74,0,0,0,11.948-5.328c2.783-1.56,1.842-4.292,1.011-6.7-.14-.408-.273-.793-.39-1.174L20.42,23.14,19.37,19.712l-1.883-6.141-.021-.069L15.035,5.576c-.063-.206-.123-.5-.186-.816A4.458,4.458,0,0,0,14.2,2.84,1.628,1.628,0,0,0,13.062,2.351Z" transform="translate(326 399)" fill="#002d37"/>
    <path id="Fill_45" data-name="Fill 45" d="M31.159.11C36.909.783,41.25,1.613,47,2.286Q34.216,23.05,20.81,43.418a4.012,4.012,0,0,1-1.042,1.2,4.161,4.161,0,0,1-3.154.148A57.007,57.007,0,0,0,0,43.766L30.212,0Z" transform="translate(1 292)" fill="#c5576a"/>
    <g id="Group_49" data-name="Group 49" transform="translate(0 292)">
      <path id="Clip_48-2" data-name="Clip 48" d="M0,0H48.655V46.7H0Z" transform="translate(0 0.193)" fill="none"/>
      <g id="Group_49-2" data-name="Group 49" clip-path="url(#clip-path)">
        <path id="Fill_47" data-name="Fill 47" d="M19,46.7c-.071,0-.145,0-.218,0a32.4,32.4,0,0,1-4.571-.638,37.333,37.333,0,0,0-4.026-.607C8.827,45.349,7.419,45.3,6,45.3c-1.618,0-3.307.068-5.022.2l-.06,0a.926.926,0,0,1-.8-.531.9.9,0,0,1,.021-.929l21.076-30.31,1.106-1.591L30.464.432A.964.964,0,0,1,31.272,0a1.011,1.011,0,0,1,1.039.865L45.884,2.443l1.787.208a1.151,1.151,0,0,1,.9.609.857.857,0,0,1-.06.849C41.8,14.924,34.966,25.651,28.206,35.993l-.888,1.36-.017.026c-1.4,2.141-2.842,4.353-4.288,6.509C21.871,45.588,20.976,46.7,19,46.7ZM5.724,43.377h0A61.043,61.043,0,0,1,17.289,44.49a4.239,4.239,0,0,0,.8.079c2.514,0,3.98-2.464,5.273-4.638.287-.483.559-.939.835-1.36,1.438-2.187,2.918-4.449,4.4-6.723C34.344,23.007,40.213,13.773,46.041,4.4l-1.275-.148-.041,0L31.256,2.681,13.428,28.319,2.912,43.442C3.858,43.4,4.8,43.377,5.724,43.377Z" transform="translate(0 0.193)" fill="#002d37"/>
      </g>
    </g>
    <path id="Fill_50" data-name="Fill 50" d="M.054,11.118,31.438,54l16.109-9.087c.655-.369,1.389-.856,1.449-1.609a2.353,2.353,0,0,0-.686-1.547Q31.669,20.584,14.3,0L0,10.988" transform="translate(473 14)" fill="#c9e8f2"/>
    <path id="Fill_52" data-name="Fill 52" d="M32.5,56a1.073,1.073,0,0,1-.85-.477L.184,12.594a.774.774,0,0,1-.083-.88.988.988,0,0,1,.374-.577l9.9-7.593.1-.079L14.819.136A.756.756,0,0,1,15.277,0a.958.958,0,0,1,.713.288c9.335,11.056,18.532,22.25,27.334,33.273.692.866,1.411,1.742,2.107,2.588,1.576,1.918,3.2,3.9,4.656,5.941.816,1.147,1.476,2.5.185,3.87a9.01,9.01,0,0,1-2.566,1.657c-.354.177-.688.343-1,.521l-.913.514L42.261,50.64l-9.288,5.231A.952.952,0,0,1,32.5,56ZM15.159,2.3,2.269,12.184l17.59,24L32.754,53.771l5.171-2.913.211-.119,1.939-1.092,2.811-1.583,1.227-.691c.407-.229.855-.447,1.33-.678a12.568,12.568,0,0,0,2.708-1.6l.041-.035c.888-.775.9-.789.335-1.833a8.166,8.166,0,0,0-1.044-1.381c-.176-.2-.358-.411-.52-.616-.861-1.089-1.795-2.268-2.939-3.709-1.842-2.317-3.732-4.679-5.617-7.022C30.937,21.219,23.116,11.73,15.159,2.3Z" transform="translate(472 13)" fill="#002d37"/>
    <path id="Fill_54" data-name="Fill 54" d="M0,19.912c.444.3,1.227-19.7,4.38-19.9S15.819,2.23,15.994,11.386,12.2,25,12.2,25Z" transform="translate(312 208)" fill="#f4d0b7"/>
    <path id="Fill_56" data-name="Fill 56" d="M0,.441A46.976,46.976,0,0,0,4.606,10.763c2.749,4.168,4.473,6.622,4.522,12.43L9.178,29l11.638-.383S17.764,15.5,19.927,10.463,29,0,29,0Z" transform="translate(374 206)" fill="#f4d0b7"/>
    <path id="Fill_58" data-name="Fill 58" d="M6.344,2.693c.2.914-7.907,17.5-6.075,28.571S11.052,48.332,11.052,48.332L8.793,64.122s6.435,2.839,12.754,1.536a32.125,32.125,0,0,0,9.687-3.4V36.622S43.552,27.872,47,18.764c-.749-3.2-9.5-3.155-10.382-7.665s.873-6.929-7.237-9.579A33.659,33.659,0,0,0,6.344,2.693" transform="translate(455 271)" fill="#f4d0b7"/>
    <path id="Fill_60" data-name="Fill 60" d="M2.943,14.856S10.281,5.139,13.424,2.17s7.784-3.081,7.793.857,1.3,7.678,5.853,2.936C35.393-2.7,40.811,2.931,39.9,7.522,38.313,15.53,35.43,24.545,21.125,30.306S0,38,0,38V16.3Z" transform="translate(613 359)" fill="#f4d0b7"/>
    <path id="Fill_62" data-name="Fill 62" d="M.849,1.207,0,12.583l26.509-.368s-5.042,19.375-.623,45.947C33.732,59.319,40.2,60,40.2,60s.065-28.114,3.664-41.506A103.209,103.209,0,0,1,51,0Z" transform="translate(333 35)" fill="#82a013"/>
    <path id="Fill_64" data-name="Fill 64" d="M.007,8s.064,8.995,9.873,7.909,60.139-4.446,86.738-5.051S208.759,8.971,208.759,8.971s91.033.316,94.549-3.574,3.663-5.643,0-5.369S87.917.762,87.917.762-.9,2.407.007,8" transform="translate(239 195)" fill="#82a013"/>
    <path id="Fill_66" data-name="Fill 66" d="M4.991,42c11.53-.555,131.509-.5,131.509-.5l114.935-1.435s5.895-15.176,2.525-28.41c-6.439-1.084-78.817-7.376-115.544-8.244S80.635-3.1,51.03,2.327.657,12.921.657,12.921-2.49,29.492,4.991,42Z" transform="translate(265 156)" fill="#da763c"/>
    <path id="Fill_68" data-name="Fill 68" d="M191,36.317l-2-25.989S173.242,3.4,142.446,2.308,19.622.122,19.622.122-1.151-2.068.05,12.084A219.293,219.293,0,0,1,.691,38Z" transform="translate(295 113)" fill="#da763c"/>
    <path id="Fill_70" data-name="Fill 70" d="M.053,18.712s1.964-.711,6.1,8.376,8.28,9.61,11.609,5.28,7.054-17.853,16.255-17.481,10.646,9.682,16.349,7.87,5.582-11.4,14.276-8.638S81.694,30.291,86.487,31.894s11.817,3.034,15.839-3.8,10.855-13.643,18.54-12.019,6.48,8.734,14.913,5.585,8.766-10.891,20.044-8.036,8.668,15.243,24.128,15.446c0,0,8.913,3.517,11.283.946s-1.127-21.821-5.4-25.6-14.3-4.733-38.206-4.18S20.332.092,20.332.092-1.2-2.412.053,18.712" transform="translate(294 108)" fill="#fff"/>
    <path id="Fill_72" data-name="Fill 72" d="M12.033,32c7.945.579,14.413-1.468,18.5-8.417,2.7-2.625,6.542-3.4,8.455.046s6,10.558,13.053,7.8S67.971,20.108,69.985,18.556s5.805-5.959,12.81-1.969S93.929,24.3,98.181,20.915s9.71-7.016,14.564-.482,8.6,13.972,14.567,12.317,12.235-11.276,14.753-12.343,11.567,6.378,14.965,3.034,9.419-9.548,15.367-.2,7.348,12.091,14.046,11.73,9.13-4.038,12-8.6,5.626-8.2,12.96-5,11.314,5.808,16.412,3.041,6.294-5.372,10.906-2.07,9.492,6.979,13.283,2.736C251.476,14.828,250.629,3.12,241.419.96s-41.861,0-41.861,0L26.955,2.055S2.09,4.243.22,15.169C.22,15.169-2.609,28.992,12.033,32Z" transform="translate(266 149)" fill="#fff"/>
    <path id="Fill_74" data-name="Fill 74" d="M29.938,65c-.259,0-.512-.019-.7-.036L5.18,62.856c-1.943-.169-3.859-.538-4.72-2.075a5.875,5.875,0,0,1-.41-3.3q.128-1.822.257-3.711c.6-8.735,1.282-18.635,2.526-27.632C4.263,15.8,6.208,8.311,8.781,3.253a4.069,4.069,0,0,1,1.191-1.3C12.227.693,15.865,0,20.215,0A40.752,40.752,0,0,1,29.8,1.129a5.055,5.055,0,0,1,3,1.614,5.728,5.728,0,0,1,.782,3.181,399.777,399.777,0,0,1-1.459,56.865,2.871,2.871,0,0,1-.489,1.6A2.056,2.056,0,0,1,29.938,65ZM13.785,11.559l0,.044-.049.466Q11.751,31.061,9.77,50.053l6.9,1.173.071.012,6.974,1.185a3.654,3.654,0,0,0,.611.066,1.129,1.129,0,0,0,.685-.192,1.837,1.837,0,0,0,.5-1.542l.217-36a2.709,2.709,0,0,0-.239-1.38,2.422,2.422,0,0,0-1.609-.928,31.144,31.144,0,0,0-7.569-.934c-.8,0-1.61.032-2.406.094Z" transform="translate(390 33)" fill="#82a013"/>
    <path id="Fill_76" data-name="Fill 76" d="M0,.653,18.423,0s3.661,38.5,6.209,43.891C29.34,53.845,66.246,89.52,66.246,89.52s3.5,1.078,7.492,2.161c5.135,1.393,10.984,3.49,10.189,10.66-4.63,23.918-18.94,77.751-20.452,116.9L61.6,249.908s-18.419,3.826-18.441-2.843c-.028-8.355,5.637-41.01,5.637-41.01l12.146-81.077S30.06,102.406,18.02,85.255,4.281,69.02,2.722,47.806,0,.653,0,.653" transform="translate(380 235)" fill="#82a013"/>
    <path id="Fill_78" data-name="Fill 78" d="M5.353.5A322.959,322.959,0,0,0,.14,68.727c1.154,37.76,6.006,77.351,8.967,84.581s11.983,5.826,18.175,6.29L46,161s3.666-6.451,0-20.641-9.671-41.276-11.147-55.3-2.474-29.309-2.474-29.309L43.843,68.857s18.18,26.1,27.254,26.882,32.513-7.763,44.089-14.991,17.276-10.99,17.276-10.99L133,37.794,79.7,64.924s-4.717,3.1-9.1-4.774S51.472,24.816,46,20.042,27.113-3.245,5.353.5" transform="translate(481 333)" fill="#82a013"/>
    <path id="Fill_80" data-name="Fill 80" d="M21.683,2.353S34.985,8.312,43.285,0c-1.438,19.711-7.228,60.545-2.228,105.65l5,45.1.943,3.19S8.826,155.28.031,144.841c-.526-16.887,5.828-61.768,10-89.179A479.837,479.837,0,0,1,21.683,2.353" transform="translate(443 333)" fill="#c9e8f2"/>
    <path id="Fill_82" data-name="Fill 82" d="M13.3.236S5.323-1.171,2.1,2.884s-2.751,10.67,1.476,12.4,7.639.253,8.919-3.665S14.7,3.5,13.3.236" transform="translate(84 269)" fill="#f4d0b7"/>
    <path id="Fill_84" data-name="Fill 84" d="M0,53.888,35.645,81.627,62.189,57.313l6.334,31.124L109.162,90,112,14.265s-9.626.013-10.8-6.366c-4.644.309-15.186,2.509-25.99-.806S53.906,0,53.906,0l-.813,6.041S41.707,8.228,36.866,5.986C32.073,12.647,0,53.888,0,53.888" transform="translate(389 479)" fill="#a9ce52"/>
    <path id="Fill_86" data-name="Fill 86" d="M11.033.383,0,21.1,56.039,47A165.348,165.348,0,0,0,66.394,30.767a2.894,2.894,0,0,0,.523-2.253,2.844,2.844,0,0,0-1.61-1.408L10.245,0" transform="translate(574 169)" fill="#f4d924"/>
    <path id="Fill_88" data-name="Fill 88" d="M57.909,48a1.219,1.219,0,0,1-.5-.117L28.785,35.012.473,22.28a.785.785,0,0,1-.419-.48,1.089,1.089,0,0,1,.067-.843Q3.6,14.6,7.081,8.244L11.332.48A.856.856,0,0,1,12.1,0a1.093,1.093,0,0,1,.987.671c6.949,3.324,13.859,6.551,20.542,9.672,6.852,3.2,13.938,6.508,21.072,9.925l5.259,2.519.508.243,4.722,2.262c.292.14.615.278.958.424,1.817.776,4.079,1.741,3.833,3.944a7.768,7.768,0,0,1-1.395,3.05c-.169.263-.328.511-.471.753-.939,1.582-1.907,3.152-2.877,4.667-1.962,3.068-4.146,6.232-6.491,9.406A1.031,1.031,0,0,1,57.909,48ZM12.447,2.506h0L7.385,11.753,2.324,21l42.1,18.93,13.159,5.918c1.925-2.629,3.635-5.1,5.226-7.538,1-1.536,1.982-3.1,2.916-4.645.125-.206.28-.44.444-.687.889-1.339,2.106-3.174,1.162-4.5a5.5,5.5,0,0,0-1.756-.891c-.212-.082-.4-.153-.494-.2l-2.158-1.035-.027-.013-4.808-2.3-9.178-4.4c-6.348-3.041-12.635-5.967-18.716-8.8-5.77-2.686-11.735-5.462-17.742-8.332Z" transform="translate(572 168)" fill="#002d37"/>
    <path id="Fill_90" data-name="Fill 90" d="M9.642,41C9.523,40.649,0,0,0,0L25,14.309Z" transform="translate(202 229)" fill="#c9e8f2"/>
    <path id="Fill_92" data-name="Fill 92" d="M1.252,30.961s4.014.827,8.266-5.138,10.491-9.082,16.341-8.605S39.248,15.4,38.994,11.734,37.317,3.95,31.055,2.488,13.941-5.546,7.089,11.279s-8.6,17.654-5.837,19.682" transform="translate(211 243)" fill="#a9ce52"/>
    <path id="Fill_94" data-name="Fill 94" d="M.09,21.514s-1.153-11.629,4.8-16.6,23.3-8,32.313.078S48.471,29.182,43.184,39c-.593-4.2-4.773-6.655-11.092-9.23-3.282-1.338,5.532-7.312-8.91-11.213S.09,21.514.09,21.514" transform="translate(459 254)" fill="#da763c"/>
    <path id="Fill_96" data-name="Fill 96" d="M40.531,62a.824.824,0,0,1-.1-.007c-2.5-.319-5.415-.692-8.287-1.086-.527-.072-1.112-.119-1.731-.167a13.676,13.676,0,0,1-4.433-.826c-1.284-.6-1.437-2.639-1.548-4.127-.026-.346-.05-.673-.086-.949-.514-3.984-.863-8.113-1.068-12.621-.417-9.2-.573-18.873,2.433-27.228-4.875.256-9.8.384-14.624.384-3.294,0-6.628-.06-9.908-.178a1.157,1.157,0,0,1-1.13-.982l-.008-.035a.018.018,0,0,1,0-.006,1.285,1.285,0,0,1-.018-.5,63.4,63.4,0,0,0,.5-10.72,1.225,1.225,0,0,1,1.2-1.2C18.333,1.108,35.179.519,51.79,0h.032a1.191,1.191,0,0,1,1.031.661,1.1,1.1,0,0,1-.027,1.15c-2.466,3.68-4.32,8.066-6.011,14.223-3.545,12.9-5.242,27.542-5.188,44.756a1.313,1.313,0,0,1-.392.888A1.008,1.008,0,0,1,40.531,62ZM27.565,12.487a.989.989,0,0,1,.864.459,1.486,1.486,0,0,1,.1,1.354c-2.3,5.336-2.716,11.436-2.922,16.735a142.2,142.2,0,0,0,.462,17.29c.2,2.445.423,4.576.678,6.513.015.114.079.388.16.735a17.8,17.8,0,0,1,.416,2.138c.171.037.367.087.509.124.105.027.188.049.221.054,1,.174,2.022.318,3.011.457l.292.041c2.621.371,5.228.706,7.89,1.046.014-1.391.046-2.849.1-4.332a215.193,215.193,0,0,1,2.47-26.932,122.706,122.706,0,0,1,2.714-13.21A51.457,51.457,0,0,1,49.581,2.48c-15.618.493-31.313,1.041-46.65,1.633a66.894,66.894,0,0,1-.4,8.718c2.878.089,5.8.135,8.7.135,5.413,0,10.882-.161,16.258-.477Z" transform="translate(333 34)" fill="#002d37"/>
    <path id="Fill_98" data-name="Fill 98" d="M260.417,483a1.24,1.24,0,0,1-.887-.349,1.111,1.111,0,0,1-.3-.823c.672-31.521,1.785-63.5,3.307-95.053a20.5,20.5,0,0,1-6.4-.925,6.269,6.269,0,0,1-4.075-4.456c-.016-.059-.03-.118-.045-.177l0-.007c-.011-.046-.022-.091-.034-.137-3.118.221-6.169.332-9.067.332-12.68,0-23.675-2.079-33.614-6.357a480.07,480.07,0,0,0,13.853,91.7,1.129,1.129,0,0,1-.191,1.009,1.36,1.36,0,0,1-1.057.5,1.079,1.079,0,0,1-1.092-.864c-3.022-11.995-5.621-24.325-7.724-36.647a164.847,164.847,0,0,1-15.654,14.814,171.475,171.475,0,0,0-15.123,14.218,1.075,1.075,0,0,1-.8.386,1.306,1.306,0,0,1-1.13-.8,1.171,1.171,0,0,1,.218-1.306,171.628,171.628,0,0,1,15.121-14.22c5.8-5.025,11.791-10.22,16.847-16.194a484.527,484.527,0,0,1-5.714-53.011A1.126,1.126,0,0,1,207,374l-.209-.1c-.1-.049-.209-.1-.313-.148q-.026.546-.052,1.092c-.048,1-.1,2.024-.139,3.046a1.211,1.211,0,0,1-.891,1.17,76.12,76.12,0,0,1-9.475.763c-.383.005-.767.014-1.174.024-.622.015-1.261.03-1.9.03a18.778,18.778,0,0,1-3.714-.3l-7.86,9.849-.037.047c-5.791,7.256-11.779,14.759-17.662,22.143-8.048,10.1-15.718,20.113-21.1,31.472a.993.993,0,0,1-.917.624,1.364,1.364,0,0,1-1.113-.644,1.214,1.214,0,0,1-.066-1.205c5.371-11.343,12.966-21.27,20.933-31.282,5.926-7.447,11.935-14.974,17.747-22.254q3.854-4.827,7.707-9.656c-2.3-1.655-1.709-5.106-1.233-7.879.082-.475.158-.92.218-1.342,2.708-18.9,5.645-38.079,8.486-56.624l0-.011c2.958-19.314,6.017-39.286,8.819-58.96a7.785,7.785,0,0,1-3.564-2.006c-.32-.261-.649-.53-1-.795-1.991-1.511-3.951-3.05-5.825-4.573-4.078-3.317-8.09-6.834-11.923-10.453a214.716,214.716,0,0,1-19.022-20.471c-2.89-3.55-5.681-7.2-8.294-10.859l-.573-.8c-2.456-3.42-4.994-6.954-6-11.129a70.912,70.912,0,0,1-1.444-11.205c-.1-1.277-.2-2.593-.316-3.868-.617-6.542-1.048-11.539-1.4-16.2-.889-11.909-1.237-22.348-1.063-31.916a1.263,1.263,0,0,1-.484-1.4,1.121,1.121,0,0,1,1.119-.852c.262,0,.528-.008.786-.013l.618-.011c-.109-5.769-.431-10.908-3.286-15.363-.34-.531-.69-1.061-1.06-1.622-2.16-3.273-4.608-6.983-5.011-10.9-8.4.149-15.847.295-22.756.448-21.154.471-45.765,1.094-70.151,2.529-7.618.448-16.623,1.04-25.648,2.038-.494.055-1.021.12-1.532.183a47.692,47.692,0,0,1-5.77.471,12.913,12.913,0,0,1-5.229-.906,6.8,6.8,0,0,1-3.614-3.659c-.886-2.067-.986-4.977.788-6.817,1.234-1.28,2.787-1.3,4.431-1.319h.007c.279,0,.567-.007.851-.017,1.583-.181,3.241-.356,4.928-.518,5.919-.573,12.129-1.046,18.983-1.447a93.453,93.453,0,0,1-3.7-18.555,42.859,42.859,0,0,1,.212-9.39,24.144,24.144,0,0,1,2.672-8.312,17.926,17.926,0,0,1,4.73-5.509,21.783,21.783,0,0,1,7.511-3.632c4.648-1.295,9.607-1.482,14.287-1.563h.054l.1,0c-.151-7.162-.191-14.445-.229-21.489v-.211q-.012-2.265-.026-4.53a30.089,30.089,0,0,1,.447-5.929,12.93,12.93,0,0,1,2.3-5.418c1.965-2.6,5.045-4.317,9.156-5.1A55.5,55.5,0,0,1,78.257.1L79.564.093C84.311.058,89.2.033,94.513.016,98.227,0,102.074,0,105.948,0c5.737,0,11.786.013,17.98.038,17.668.073,36.515.248,59.312.55,8.974.119,18.474.256,29.9.43q7.233.109,14.466.222c.6.009,1.205.01,1.829.01h.6a29.236,29.236,0,0,1,9.339,1.029,10.745,10.745,0,0,1,6.72,6.669,38.446,38.446,0,0,1,1.971,9.715c.835,7.294,1.174,14.612,1.5,22.735l5.511-.041c2.123-.016,4.526-.035,6.869-.05l.333,0h.007c.453,0,.922-.006,1.389-.006a34.32,34.32,0,0,1,6.047.413,13.242,13.242,0,0,1,5.534,2.213,12.517,12.517,0,0,1,4.163,5.644,39.479,39.479,0,0,1,1.905,6.883,70.037,70.037,0,0,1,1.227,8.419,1.12,1.12,0,0,1,.056.542c0,.023-.007.045-.011.067l0,.012a72.652,72.652,0,0,1-1.927,22.829c9.518-.291,19.016-.637,27.05-.938h.034a1.219,1.219,0,0,1,1.136.892c.622,3.142-1.333,5.036-3.082,6.071-3,1.773-6.528,1.979-9.943,2.179h-.008l-.8.048c-2.6.159-5.366.291-8.965.428-8.381.32-16.922.507-24.9.661-18.272.352-36.85.57-54.817.78-4.481.052-9.561.112-14.483.172-7.312.089-15.192.191-24.091.31a52.211,52.211,0,0,1-4.508,4.73c-.434.418-.977.856-1.551,1.319-1.706,1.377-3.64,2.937-3.775,4.782-.306,4.151-.205,8.453-.107,12.614.035,1.486.071,3.02.088,4.519.949-.047,2.379-.118,3.823-.205l.068,0a1.247,1.247,0,0,1,1.146,1.216q1.862,14.6,3.722,29.2c.133,1.041.251,2.112.365,3.148a60.755,60.755,0,0,0,1.588,9.638c1.152,4.128,3.823,7.177,6.46,9.947,4.048,4.249,8.178,8.535,12.172,12.68,1.9,1.968,4.045,4.2,6.1,6.337l8.506,8.854.52.541c.795.827,1.568,1.7,2.387,2.623a36.365,36.365,0,0,0,6.522,6.252,11.213,11.213,0,0,0,5.562,1.4,14.318,14.318,0,0,1,4.693.887,11.871,11.871,0,0,1,5,4.143c.048-.235.087-.443.114-.618.471-2.975,1.072-6.007,1.838-9.267a16.8,16.8,0,0,1-5.894-3.914,19.779,19.779,0,0,1-4.107-6.19c-4.078-9.715-.242-20.747,3.142-30.48.46-1.323.894-2.573,1.311-3.82l-.357-.024-.249-.017a1.269,1.269,0,0,1-1.17-.89,14.881,14.881,0,0,1,.1-9.842,17.981,17.981,0,0,1,5.755-8.1,20.993,20.993,0,0,1,6.973-3.592,27.52,27.52,0,0,1,8.038-1.149c8.261,0,16.468,3.267,21.419,8.527a21.881,21.881,0,0,1,4.942,8.877,35.623,35.623,0,0,1,1.349,10.159,28.711,28.711,0,0,1-1.347,9.1,16.9,16.9,0,0,1-4.96,7.611,1.316,1.316,0,0,1-.266.175,22.433,22.433,0,0,1-4.214,3.679c-.376.277-.765.563-1.143.851a34.013,34.013,0,0,0-6.014,6.124c-.56.709-1.121,1.439-1.663,2.144l-.316.412c.084,3.564.178,7.188.27,10.692v.047c.079,3.026.161,6.155.236,9.28.007.277.02.56.033.833.026.548.052,1.111.027,1.642a1.283,1.283,0,0,1,.557-.2,30.762,30.762,0,0,1,3.672-.22,34.821,34.821,0,0,1,13.882,3.02,47.3,47.3,0,0,1,12.091,7.72c7.5,6.5,13.164,14.592,19.265,23.732,3.035,4.547,5.992,9.241,8.791,13.953,1.085,1.828,2.113,3.761,3.108,5.63a91.116,91.116,0,0,0,4.89,8.45c.915,1.344,2.113,2.718,4.071,2.718a4.6,4.6,0,0,0,.612-.042,9.8,9.8,0,0,0,2.507-.828c.235-.1.474-.2.705-.3,2.579-1.047,5.188-2.152,7.976-3.378,4.924-2.164,9.846-4.471,14.629-6.857,9.741-4.857,19.476-10.335,28.935-16.282a1.091,1.091,0,0,1,.589-.17,1.26,1.26,0,0,1,.885.379,1.176,1.176,0,0,1,.351.84c0,.467-.01.939-.017,1.4q-.006.38-.011.76c2.941-1.258,4.781-4.189,6.56-7.023,1.529-2.437,3.111-4.956,5.394-6.447a7.862,7.862,0,0,1,4.173-1.293,4.333,4.333,0,0,1,3.858,2,4.418,4.418,0,0,1,.025,4.728,3.362,3.362,0,0,0,1.412.313c1.981,0,3.944-1.674,6.023-3.447l.13-.111c1.955-1.668,4.171-3.557,6.413-3.557a4.417,4.417,0,0,1,2.846,1.1c4.385,3.565,1.422,12.385-.757,16.551-7.047,13.462-22.346,17.866-36.132,20.939a1.3,1.3,0,0,1-.28.031,1.222,1.222,0,0,1-.308-.039c-.036,1.616-.077,3.537-.095,5.525a1.256,1.256,0,0,1-.371,1.671,178.849,178.849,0,0,1-47.245,23.162c-.582.185-1.162.375-1.776.577-3.538,1.16-7.547,2.474-11.3,2.475a11.639,11.639,0,0,1-7.714-2.609,59.238,59.238,0,0,1-6.689-6.879c-.612-.7-1.244-1.426-1.872-2.125-2.944-3.276-5.848-6.614-8.631-9.922-4.649-5.521-9.375-11.466-14.049-17.668a375.84,375.84,0,0,0,6.3,52.041c1.662,8.583,3.686,17.349,6.016,26.055l.073.273c2.1,7.853,4.277,15.973,1.854,23.989-.148.487-1,2.3-1.9,2.3l-.05,0-1.582-.119-22.419-1.686c-.272-.02-.556-.038-.847-.051-1.52,31.5-2.631,63.45-3.3,94.968A1.175,1.175,0,0,1,260.417,483Zm-9.624-254.984c-1.922,13.372-3.264,27.114-3.989,40.847a472.545,472.545,0,0,0,1.853,73.677,370.92,370.92,0,0,0,5.468,36.928l.006.027c.354,1.712.72,3.483,2.626,4.127a11.9,11.9,0,0,0,3.229.445c.353.017.686.032,1.019.057l8.641.651,19.725,1.483a1.21,1.21,0,0,1,.049-.483c2.293-7.584.185-15.3-1.854-22.758l0-.013c-.3-1.11-.617-2.259-.907-3.377-2.187-8.424-4.106-17.052-5.7-25.645a381.087,381.087,0,0,1-5.966-52.027,1.035,1.035,0,0,1,.426-.941.963.963,0,0,1,.262-.743,1.435,1.435,0,0,1,1.037-.451,1.245,1.245,0,0,1,1.018.519c5.655,7.614,11.579,15.049,17.607,22.1,2.531,2.96,5.153,5.936,7.792,8.847.6.661,1.189,1.353,1.814,2.085,1.993,2.338,4.052,4.752,6.511,6.268a8.807,8.807,0,0,0,4.763,1.26,26.376,26.376,0,0,0,7.056-1.332l.279-.079c3.566-1.011,7.153-2.152,10.66-3.391a177.526,177.526,0,0,0,40.529-20.574c.045-4.869.212-9.732.374-14.436.167-4.868.34-9.9.378-14.945a336.916,336.916,0,0,1-31.123,17.118c-4.9,2.36-9.946,4.642-15.01,6.782-.566.239-1.142.5-1.752.784-2.182,1-4.654,2.138-6.979,2.138a5.949,5.949,0,0,1-3.827-1.315,15.4,15.4,0,0,1-3.645-5l-.036-.067c-1.416-2.618-2.616-4.783-3.774-6.814-2.859-5.012-5.9-10.017-9.04-14.875-9.555-14.78-24-37.116-45.434-37.116a32.639,32.639,0,0,0-3.9.237.788.788,0,0,1-.1.005h-.083Zm-22.28,3.1c-2.895,11-5.484,21.731-7.694,31.9A669.822,669.822,0,0,0,206.6,371.114c10.492,5.3,22.367,7.87,36.3,7.87,2.715,0,5.574-.1,8.5-.295-.9-3.983-1.488-8.145-2.054-12.169v-.01c-.184-1.308-.374-2.66-.57-3.972-.922-6.15-1.728-12.424-2.4-18.648-1.39-12.948-2.243-26.238-2.536-39.5a470.15,470.15,0,0,1,4.369-75.263,26.638,26.638,0,0,1-7.335,1.938,39,39,0,0,1-6.155.5c-.815,0-1.634-.028-2.433-.085-.236-.017-.5-.028-.784-.041A16.141,16.141,0,0,1,228.514,231.115ZM192.829,377.381c.122,0,.231,0,.333,0,.6.016,1.215.024,1.825.024s1.232-.008,1.85-.024c2.259-.058,4.638-.245,7.071-.554.465-11.023,1.147-21.744,2.029-31.864,1.657-19.055,4.259-38.574,7.735-58.017,3.357-18.779,7.621-38.005,12.675-57.145a.367.367,0,0,0-.023-.033.311.311,0,0,1-.027-.039,4.414,4.414,0,0,1-.374-2.579,1.141,1.141,0,0,1-.338-.436,9.855,9.855,0,0,0-4.592-4.927,12.493,12.493,0,0,0-4.983-1.015c-.443-.029-.9-.058-1.349-.1a10.021,10.021,0,0,1-5.06-1.926,29.36,29.36,0,0,1-4.03-3.722l-.2-.206-9.361-9.743-9.361-9.743-9.361-9.743c-.582-.606-1.183-1.218-1.765-1.81l-.008-.008a63.9,63.9,0,0,1-5.985-6.693c-3.842-5.215-4.506-11.937-5.148-18.439-.15-1.519-.292-2.953-.473-4.381q-.721-5.65-1.441-11.3l-.16-1.252q-.8-6.276-1.6-12.552c-5.18.3-10.443.485-15.642.566-.178,10.1.206,20.8,1.21,33.683.333,4.271.733,8.827,1.3,14.774.117,1.233.206,2.524.291,3.772v.005a48.837,48.837,0,0,0,1.693,11.457c1.153,3.6,3.516,6.782,5.8,9.863l0,.006c.378.51.769,1.037,1.143,1.551,2.7,3.716,5.574,7.4,8.531,10.947a215.007,215.007,0,0,0,18.037,19.111c3.149,2.95,6.414,5.829,9.7,8.557,1.723,1.429,3.474,2.836,5.206,4.181.435.338.881.747,1.353,1.18,1.3,1.19,2.768,2.538,4.4,2.691a1.022,1.022,0,0,1,.533-.141,1.453,1.453,0,0,1,1.065.493,1.255,1.255,0,0,1,.3,1.028c-1.21,8.528-2.578,17.851-4.306,29.339-1.559,10.373-3.17,20.915-4.728,31.111l-.008.054-.024.155c-1.178,7.713-2.4,15.688-3.584,23.532-1.626,10.738-2.85,18.959-3.971,26.654-.283,1.936-.584,4.022-.922,6.377-.05.348-.134.761-.223,1.2-.414,2.026-.981,4.8.916,5.7a6.306,6.306,0,0,0,2.582.4c.268,0,.542-.005.761-.009h.08C192.422,377.385,192.628,377.381,192.829,377.381ZM393.8,253.756a3.782,3.782,0,0,0-.584.046,6.786,6.786,0,0,0-3.66,2.244,28.441,28.441,0,0,0-3.381,4.58l-.008.013c-.194.3-.394.617-.593.922-1.968,3.026-4.184,6.071-7.7,7.15-.076,3.781-.2,7.593-.318,11.28v.015c-.079,2.456-.161,4.99-.228,7.492,13.322-2.973,26.911-6.852,33.866-18.542a21.759,21.759,0,0,0,3.092-9.121l0-.042a9.474,9.474,0,0,0-.276-4.268,2.267,2.267,0,0,0-2.18-1.587,6.063,6.063,0,0,0-3.166,1.265c-.616.442-1.251.947-1.922,1.482-2.35,1.87-5.013,3.99-7.751,3.99a5.724,5.724,0,0,1-3.908-1.641,1.191,1.191,0,0,1-.335-1.058,1.088,1.088,0,0,1,.58-.848,1.447,1.447,0,0,0,.765-1.905A2.217,2.217,0,0,0,393.8,253.756ZM230.85,214.321h0c-.553,2.349-1,4.473-1.363,6.493-.07.387-.188.882-.325,1.454-.493,2.063-1.168,4.888-.378,6,.457.642,1.808.954,4.128.954.786,0,1.537-.035,2.141-.063.281-.013.523-.024.72-.03a34.868,34.868,0,0,0,7.023-.915c1.017-.241,2.006-.519,2.939-.825,1.659-.544,2.033-.831,2.232-2.634a29.559,29.559,0,0,0-.055-5.131c-.056-.821-.114-1.67-.134-2.475-.089-3.423-.18-6.983-.276-10.882a27.167,27.167,0,0,1-7.078,6.358,13.844,13.844,0,0,1-7,1.948,13.446,13.446,0,0,1-2.573-.251Zm4.133-48.6a22.886,22.886,0,0,0-9.343,1.774,1.352,1.352,0,0,1-.259.085,1.415,1.415,0,0,1,.15.662,1.068,1.068,0,0,1,.046.844c-.5,1.542-1.063,3.126-1.655,4.8-3.4,9.626-7.251,20.535-2.742,29.682,2.154,4.37,5.619,7.433,9.507,8.4a10.014,10.014,0,0,0,2.42.3c4.155,0,7.7-2.557,9.943-4.7a44.037,44.037,0,0,0,4.466-5.162,1.024,1.024,0,0,1,.289-.373l.6-.786c1.2-1.585,2.451-3.224,3.806-4.725a33.626,33.626,0,0,1,5.049-4.472q.293-.218.6-.438c1.679-1.229,3.416-2.5,4.339-4.347a5.119,5.119,0,0,0,.41-4,3.726,3.726,0,0,0-2.14-2.14,14.868,14.868,0,0,0-2.247-.676,15.177,15.177,0,0,1-2.216-.663,5.154,5.154,0,0,1-2.915-2.586,6.539,6.539,0,0,1-.26-3.748,15.026,15.026,0,0,0,.149-1.741c.034-4.1-6.2-4.828-9.929-5.266-.541-.064-1.05-.123-1.469-.185A45.185,45.185,0,0,0,234.983,165.719Zm.087-2.384h0a51.592,51.592,0,0,1,8.415.786c.37.061.754.119,1.161.181a27.405,27.405,0,0,1,6.66,1.606c2.426,1.062,3.746,2.618,4.035,4.757a10.409,10.409,0,0,1-.067,2.486c-.2,1.88-.391,3.656,2.019,4.543a19.26,19.26,0,0,0,1.976.571,11.912,11.912,0,0,1,3.13,1.1,5.614,5.614,0,0,1,2.807,4.386c2.653-5.2,2.424-11.618,1.764-16.081-1.179-7.972-5.566-13.817-12.688-16.9a32.092,32.092,0,0,0-12.46-2.63,23.306,23.306,0,0,0-9.6,1.926c-5.839,2.621-10.956,9.392-8.94,16.776l.437.03.233.016a1.128,1.128,0,0,1-.118-.9,1.008,1.008,0,0,1,.586-.592A26.052,26.052,0,0,1,235.071,163.334ZM164.556,98.966c-9.542.133-18.312.269-26.809.416.372,3.279,2.359,6.214,4.281,9.052a41.438,41.438,0,0,1,2.653,4.267c2.265,4.437,2.35,9.818,2.425,14.565,2.752-.059,5.583-.151,8.413-.273,0-2.731,0-5.509,0-8.194v-.009l0-1.382c0-.852-.047-1.743-.1-2.686a20.788,20.788,0,0,1,.34-6.732c.486-1.663,1.974-2.833,3.412-3.965.544-.428,1.059-.833,1.513-1.259C161.909,101.622,163.291,100.326,164.556,98.966ZM5.127,94.77a4.1,4.1,0,0,0-1.149.127c-1.378.4-1.668,2.058-1.5,3.352.4,3.038,2.747,4.515,7.184,4.515a45.315,45.315,0,0,0,6.311-.608c.828-.121,1.609-.234,2.266-.3,3.384-.356,7.079-.687,11.3-1.013,8.175-.631,16.814-1.138,28.011-1.646,24.028-1.09,47.66-1.629,69.619-2.048,11.831-.226,24.425-.429,39.633-.637a.862.862,0,0,1,.342-.071.965.965,0,0,1,.333.062c11.528-.157,23.3-.3,34.3-.434l9.288-.11h.008c17.766-.21,36.137-.427,54.2-.8,7.156-.15,14.833-.331,22.483-.643.442-.018,1.057-.027,1.769-.038h.008a70.634,70.634,0,0,0,10.277-.7c4.262-.719,6.54-2.039,6.77-3.922l-.14.005-.163.006c-3.635.136-7.393.277-11.089.411-22.231.805-41.654,1.2-59.378,1.2-6.9,0-13.724-.06-20.278-.177-11.531-.207-24.046-.366-38.258-.486-13.195-.112-26.068-.169-38.262-.169-6.906,0-13.787.018-20.452.054-24.419.131-44.25.469-62.409,1.063-7.159.234-15.491.522-23.783.972a1.5,1.5,0,0,1-.178.01h-.025c-9.5.518-17.83,1.193-25.463,2.065a1.33,1.33,0,0,1-.156.009c-.04,0-.081,0-.121-.006-.192,0-.389-.008-.6-.016C5.594,94.778,5.358,94.77,5.127,94.77ZM29.016,65.652h0c-.431,8.074,1.821,16.975,4.081,24.618,10.459-.572,20.851-.9,30.523-1.17,18.514-.516,38.392-.792,62.555-.87,4.255-.014,8.6-.021,12.919-.021,14.116,0,28.994.075,44.223.223,14.025.137,24.752.285,34.782.48,5.83.113,11.951.17,18.193.17,12.554,0,25.849-.219,41.84-.689a71.805,71.805,0,0,0,2.276-19.039,6.524,6.524,0,0,1-3.785,1.076,10.725,10.725,0,0,1-5.857-1.842c-.526-.362-1.09-.813-1.687-1.29-1.888-1.509-4.024-3.217-6.225-3.217a4.087,4.087,0,0,0-2.071.568,10.175,10.175,0,0,0-1.952,1.622,11.634,11.634,0,0,1-1.7,1.471,8.408,8.408,0,0,1-3.914,1.322c-.3.025-.6.038-.9.038-3.159,0-6.011-1.4-8.769-2.745-2.686-1.315-5.464-2.674-8.524-2.743l-.189,0c-4.092,0-5.414,3.048-6.812,6.274-.14.324-.285.658-.433.989a12.609,12.609,0,0,1-4.353,5.4,14.815,14.815,0,0,1-8.4,2.539,15.327,15.327,0,0,1-3.667-.441c-4.149-1.023-7.141-3.805-9.416-8.758-.145-.315-.284-.627-.433-.958-1.322-2.952-2.821-6.3-6.146-7.4a4.381,4.381,0,0,0-1.371-.237c-1.919,0-3.212,1.525-4.463,3-.307.362-.623.734-.941,1.076a6.334,6.334,0,0,1-4.741,2.3c-2.195,0-4.415-1.157-6.766-2.381L176.852,65l-.441-.229a8.588,8.588,0,0,0-3.929-1.166,5.109,5.109,0,0,0-2.887.9,16.558,16.558,0,0,0-3.85,4.074l-.248.329q-.282.374-.568.758c-1.972,2.642-4.208,5.636-7.553,6.6a7.906,7.906,0,0,1-2.2.319c-3.222,0-6.4-2.063-9.441-6.132-.455-.609-.96-1.355-1.495-2.144-2.414-3.565-5.72-8.446-9.631-8.446a5.806,5.806,0,0,0-3.593,1.4c-.485.382-.948.791-1.4,1.187a10.064,10.064,0,0,1-4.69,2.811,7.207,7.207,0,0,1-1.428.141,10.107,10.107,0,0,1-3.893-.864,29.785,29.785,0,0,1-4.591-2.616c-2.683-1.742-5.457-3.544-8.613-3.544h-.033c-4.5.017-7.973,4-11.036,7.506a41.515,41.515,0,0,1-3.608,3.818c-4.2,3.688-8.472,5.559-12.7,5.559a14.251,14.251,0,0,1-1.89-.127,12.359,12.359,0,0,1-6.1-2.5A11.713,11.713,0,0,1,68.11,68.7c-.289-.535-.587-1.086-.924-1.633a3.6,3.6,0,0,0-3.035-2.037c-2.267,0-4.7,2.47-6.564,4.621a17.9,17.9,0,0,1-5.876,4.742,16.512,16.512,0,0,1-7.182,1.644,16.763,16.763,0,0,1-9.279-2.81A16.587,16.587,0,0,1,29.016,65.652Zm164.852-7.108h0a7.872,7.872,0,0,1,5.725,2.8,20.362,20.362,0,0,1,3.589,5.587c2.129,4.665,4.533,8.9,10.485,9.411.378.033.761.049,1.14.049a11.327,11.327,0,0,0,10.374-6.07c.337-.684.634-1.4.921-2.1a12.987,12.987,0,0,1,3.076-5.07,8.342,8.342,0,0,1,5.574-1.964c.087,0,.176,0,.262,0,3.21.082,6.048,1.442,8.793,2.757a30.736,30.736,0,0,0,6.136,2.415,10.584,10.584,0,0,0,2.408.3,6.22,6.22,0,0,0,3.551-1.017,11.877,11.877,0,0,0,1.6-1.387,14.969,14.969,0,0,1,1.253-1.135,6.476,6.476,0,0,1,4.042-1.416,7.42,7.42,0,0,1,1.862.246,15.389,15.389,0,0,1,5.434,3.124c.613.475,1.247.966,1.9,1.414a9.768,9.768,0,0,0,4.958,1.623,2.911,2.911,0,0,0,3.227-2.706.952.952,0,0,1,.024-.108c0-.018.009-.034.013-.051a60.276,60.276,0,0,0-2.5-13.166c-1.123-3.594-2.783-5.818-5.224-7-2.482-1.2-5.359-1.331-8.092-1.361-1.109-.012-2.244-.018-3.47-.018-3.127,0-6.308.039-9.383.078h-.013c-1.973.024-4.013.05-6.022.064-46.153.343-93.135.8-139.642,1.372-11.795.145-23.5.295-34.789.446-1.683.023-3.386.04-5.033.057-3.814.039-7.757.079-11.636.186-4.428.124-9.542.41-14.2,2.247A16.686,16.686,0,0,0,29.724,60.535a.965.965,0,0,1,.595.8A14.312,14.312,0,0,0,44.234,73.688h.026a14.556,14.556,0,0,0,9.5-3.524,25.123,25.123,0,0,0,2.46-2.637,17.377,17.377,0,0,1,3.724-3.6,8.032,8.032,0,0,1,4.246-1.316,5.392,5.392,0,0,1,2.952.827,8.59,8.59,0,0,1,2.8,3.7,11.68,11.68,0,0,0,1.873,2.951,9.041,9.041,0,0,0,6.758,2.8A17.812,17.812,0,0,0,89.417,68.5a45.218,45.218,0,0,0,4.522-4.59c2.3-2.567,4.678-5.22,7.788-6.781a10.027,10.027,0,0,1,4.531-1.092,15.029,15.029,0,0,1,7.438,2.33c.683.393,1.38.841,2.117,1.316,2.335,1.5,4.981,3.205,7.569,3.205a5.781,5.781,0,0,0,3.736-1.381c.438-.353.856-.72,1.26-1.075,1.538-1.351,2.99-2.627,5.217-2.891a6.946,6.946,0,0,1,.813-.048,9.266,9.266,0,0,1,5.137,1.753c2.688,1.827,4.452,4.443,6.157,6.973a36.624,36.624,0,0,0,3.768,4.954c1.3,1.359,3.354,2.979,5.749,2.979a5.4,5.4,0,0,0,1.956-.372,11.3,11.3,0,0,0,4.341-3.641c.6-.729,1.185-1.528,1.751-2.3,1.657-2.262,3.369-4.6,5.876-5.882a6.879,6.879,0,0,1,3.2-.79c2.409,0,4.716,1.238,6.947,2.436l.633.339a7.9,7.9,0,0,0,3.549,1.182,3.374,3.374,0,0,0,1.518-.352,7.523,7.523,0,0,0,2.278-2.095l0,0,.232-.279c1.359-1.618,2.765-3.29,5.06-3.725A7,7,0,0,1,193.868,58.544ZM58.728,22.1c.038,2.995.049,6.04.059,8.985v.006c.014,4.036.029,8.21.114,12.314,3.653-.057,7.367-.1,10.958-.15h.027l4.578-.059c12.5-.167,25.176-.327,37.688-.478,25.19-.3,50.388-.571,74.894-.8,20.338-.192,40.555-.361,60.089-.5-.121-3.018-.255-6.246-.425-9.393a26.933,26.933,0,0,1-5.8.639,26.484,26.484,0,0,1-17.242-6.444,29.245,29.245,0,0,1-3.806-4.195c-1.78-2.234-3.62-4.543-6.221-5.782a12.029,12.029,0,0,0-13.154,2.066,28.731,28.731,0,0,0-2.139,2.392c-1.7,2.052-3.3,3.989-6.556,4.395a9.026,9.026,0,0,1-1.114.071c-3.33,0-5.671-1.964-7.706-4.088a8.869,8.869,0,0,0-6.706-2.889,19.333,19.333,0,0,0-6.583,1.425,16.224,16.224,0,0,0-6.412,3.678,15.5,15.5,0,0,0-2.585,4.346c-.249.547-.507,1.112-.781,1.651a10.892,10.892,0,0,1-10.146,6.187,16.9,16.9,0,0,1-7.606-1.946c-3.694-1.887-6.46-5.065-9.135-8.139-2.84-3.263-5.776-6.637-9.813-8.436a12.293,12.293,0,0,0-4.831-1.135,7.59,7.59,0,0,0-1.778.2c-2.152.518-3.323,1.942-4.515,4.072-1.217,2.173-3.011,4.668-6.1,4.668a6.639,6.639,0,0,1-1.484-.177c-2.385-.55-4.05-2.2-5.659-3.789a13.71,13.71,0,0,0-4.787-3.526,7.319,7.319,0,0,0-2.488-.428c-3.631,0-6.931,2.433-8.809,4.71a24.644,24.644,0,0,0-3.084,5.37,21.875,21.875,0,0,1-3.615,5.973,9.542,9.542,0,0,1-6.731,3.236,6.675,6.675,0,0,1-2.522-.491,7.665,7.665,0,0,1-3.758-3.352,25.294,25.294,0,0,1-2.006-4.843A22.84,22.84,0,0,0,58.728,22.1ZM105.952,2.426c-4.83,0-9.652.009-14.333.026-5.005.02-9.422.046-13.5.078l-.671,0h-.092a41.256,41.256,0,0,0-9.948.868c-4.342,1.11-7.165,3.693-8.167,7.47a27.339,27.339,0,0,0-.6,7.649,1.248,1.248,0,0,1,.479.279c2.274,2.093,3.276,5,4.245,7.814.114.332.244.708.371,1.067a13.05,13.05,0,0,0,2.262,4.154,4.69,4.69,0,0,0,3.561,1.854,5.936,5.936,0,0,0,3.422-1.3c2.409-1.742,3.687-4.473,4.924-7.115a24.479,24.479,0,0,1,3.138-5.446,14.569,14.569,0,0,1,10.156-5.394c.139-.006.279-.009.416-.009,3.6,0,6.233,2.117,8.535,4.4,1.489,1.48,3.527,3.507,5.719,3.507a3.5,3.5,0,0,0,1.712-.454,7.137,7.137,0,0,0,2.522-3.155,16.443,16.443,0,0,1,.915-1.58,8.436,8.436,0,0,1,7.273-3.705,16.466,16.466,0,0,1,9.848,3.747,52.57,52.57,0,0,1,6,6.024c3.884,4.338,7.9,8.824,13.984,9.774a11.54,11.54,0,0,0,1.773.143c3.65,0,6.427-1.938,8.255-5.76,1.673-3.5,3.369-6.552,7.2-8.534,2.808-1.452,7.028-3.183,11.192-3.183.106,0,.212,0,.316,0,3.848.083,5.846,1.967,8.375,4.352.306.289.623.588.953.892a6.775,6.775,0,0,0,4.585,1.841,6.482,6.482,0,0,0,2.321-.432,8.888,8.888,0,0,0,3.762-3.413c.258-.346.521-.7.792-1.036a13.418,13.418,0,0,1,3.777-3.237,14.1,14.1,0,0,1,4.69-1.678,15.159,15.159,0,0,1,2.545-.216,13.8,13.8,0,0,1,7.058,1.87,20.878,20.878,0,0,1,5.384,5.282,38.434,38.434,0,0,0,2.714,3.159,23.964,23.964,0,0,0,17.079,7.194,24.564,24.564,0,0,0,5.681-.672c-.268-4.36-.6-8.164-1.019-11.629q-.05-.416-.1-.848c-.429-3.681-.964-8.262-3.884-10.879-2.607-2.335-6.41-2.531-10.082-2.531-.335,0-.667,0-1,0h-.049c-.34,0-.676,0-1.006,0s-.614,0-.871-.006c-33.762-.525-72.03-1.119-109.459-1.234C114.669,2.433,110.243,2.426,105.952,2.426Z" transform="translate(237 107)" fill="#002d37"/>
    <path id="Fill_100" data-name="Fill 100" d="M31.454,67h0c-.586,0-1.181-.06-1.756-.117-.215-.022-.418-.042-.619-.059-2.543-.218-5.137-.411-7.646-.6-5.1-.38-10.368-.772-15.51-1.392C3.948,64.595,1.785,64.1.7,62.231c-.98-1.689-.714-3.974-.48-5.991.063-.545.123-1.061.158-1.548l.007-.1c.428-6.06.87-12.326,1.5-18.472C2.935,25.75,4.131,13.995,8.991,4.237a1.217,1.217,0,0,1,.158-.332,1.185,1.185,0,0,1,.245-.327A8.934,8.934,0,0,1,14.281.688,24.46,24.46,0,0,1,20.554,0c1.669,0,3.237.1,4.552.2,2.752.208,5.871.444,8.4,1.571,2.927,1.308,3.032,4.008,3.143,6.867v.01q.008.215.017.431a388.2,388.2,0,0,1-.808,45.943c-.17,2.205-.363,4.453-.574,6.68-.025.267-.04.547-.056.844a7.348,7.348,0,0,1-.51,2.788A3.3,3.3,0,0,1,31.454,67Zm-9.7-64.5a35.089,35.089,0,0,0-3.949.215l-.091.01c-2.084.237-5.233.595-6.482,2.41-4.7,9.239-5.866,20.564-6.895,30.556l0,.044c-.539,5.23-.932,10.4-1.276,15.2-.056.776-.116,1.566-.175,2.329v.008c-.128,1.663-.26,3.383-.35,5.076-.1,1.975.158,3.1,1.882,3.764a10.393,10.393,0,0,0,3.047.459c.336.018.652.034.956.06L26.73,64.2c.4.034.9.122,1.42.215a15.21,15.21,0,0,0,2.49.3,3.364,3.364,0,0,0,.984-.123c1.326-.406,1.363-2.428,1.39-3.9.006-.348.012-.648.034-.891.253-2.817.479-5.708.674-8.593.842-12.515,1.074-25.238.688-37.813-.016-.52,0-1.139.019-1.8.08-2.928.189-6.938-2.529-7.833a29.26,29.26,0,0,0-6.794-1.133C23.954,2.54,22.824,2.5,21.749,2.5Z" transform="translate(389 32)" fill="#002d37"/>
    <path id="Fill_102" data-name="Fill 102" d="M15.775,43h0a14.086,14.086,0,0,1-3.074-.485c-.457-.107-.888-.208-1.254-.268L.9,40.526A1.213,1.213,0,0,1,0,39.358l0-.041Q2.077,20.279,4.145,1.241A1.286,1.286,0,0,1,5.359.1L5.406.088A.607.607,0,0,1,5.489.076C6.316.026,7.143,0,7.946,0a34.212,34.212,0,0,1,7.234.744C17.464,1.239,18.806,2,18.9,4.4c.177,4.48.079,9.068-.016,13.5-.047,2.209-.1,4.493-.11,6.73l-.034,5.3-.034,5.3c0,.446.037.989.079,1.564.138,1.893.309,4.248-.81,5.429A2.872,2.872,0,0,1,15.775,43ZM7.979,2.42c-.495,0-1.007.01-1.521.03l-3.9,35.905,3.3.539.027,0,3.332.544,2.234.365,1.6.261,1.917.313a3.343,3.343,0,0,0,.373.023,1.016,1.016,0,0,0,.862-.311,1.125,1.125,0,0,0,.032-1,7.967,7.967,0,0,0,.083-2.663c-.032-.433-.061-.842-.059-1.192q.009-1.283.016-2.567l.008-1.287q.022-3.613.046-7.226.023-3.746.046-7.491v-.021q.023-3.711.046-7.423c0-.395.028-.807.055-1.244a11.477,11.477,0,0,0-.031-2.611,1.725,1.725,0,0,0-1-2.08c-.605-.146-1.225-.277-1.842-.389A31.444,31.444,0,0,0,7.979,2.42Z" transform="translate(398 44)" fill="#002d37"/>
    <path id="Fill_104" data-name="Fill 104" d="M0,14.931S5.674,13.116,7.818,8.9,16.79-.651,23.064.065,30.607,1.5,30.607,1.5,34.4,15.211,33.966,18.846s-1.216,5.635-4.55,8.913-6.454,10.71-8.626,14.229-9.866,7.959-13.483,5.094S.838,40.333,1.351,36.354,0,14.931,0,14.931" transform="translate(213 261)" fill="#f4d0b7"/>
    <path id="Fill_106" data-name="Fill 106" d="M10.178,7.151S26.685-8.808,46.557,6.957C59,20.486,62.737,29.094,62.931,38.781S64.374,65.242,39.064,64.9c-5.92,2.851-20.358.668-30.619-12.56S-4.385,18.406,10.178,7.151" transform="translate(24 88)" fill="#da763c"/>
    <path id="Fill_108" data-name="Fill 108" d="M0,10.008S12.714-4.743,24.753,1.572s19.3,14.233,15,31.423-4.572,22.968-17.32,25.952S3.817,57.782,3.66,56.238c6.426-5.222,6.8-21.826,3.959-30.693A62.553,62.553,0,0,0,0,10.008" transform="translate(79 93)" fill="#f4d924"/>
    <path id="Fill_110" data-name="Fill 110" d="M0,45.162s7.036,3.22,12.527,1.137,8.919-4.439,10.124-12.2-.783-19.831-5.007-25.4S7.464-1.635,1.631.537C4.658,5.758,12.469,20.111,0,45.162" transform="translate(112 99)" fill="#c9e8f2"/>
    <path id="Fill_112" data-name="Fill 112" d="M119.052,65.828s-6.354,4.232-16.977,4.9S66.433,71.293,40.444,59.7,1.017,41.365,1.017,41.365,4.2,50.386,0,56.156c.356,3.121,6.326,6.791,14.038,12.912s38.934,25,63.389,28.12L88.25,98.477s-4.111,32.335-4.793,51.574-.5,53.183-.031,56.959,85.911-4.466,85.911-4.466l-3.993-101.238s6.737-5.237,22.151-28.2S220.42,32.2,227,5.091L215.018,0A162.145,162.145,0,0,1,196.67,29.308c-11.314,14.131-28.564,33.469-55.458,40.163-3.71,2.789-6.056,12.009-13.332,11.281-6.96-.7-10.239-3.212-8.827-14.923" transform="translate(97 228)" fill="#c9e8f2"/>
    <path id="Fill_114" data-name="Fill 114" d="M.193,5.2S-.884,48.221,2.049,66c-.012-.137,69.916-4.149,69.916-4.149L72,0Z" transform="translate(181 431)" fill="#a9ce52"/>
    <path id="Fill_116" data-name="Fill 116" d="M2.451,1.164A917.433,917.433,0,0,0,1.344,117.833c.084,1.552,2.629,1.561,2.545,0A917.433,917.433,0,0,1,5,1.164c.115-1.555-2.431-1.549-2.545,0" transform="translate(218 447)" fill="#002d37"/>
    <path id="Fill_118" data-name="Fill 118" d="M168.292,466h0a1.027,1.027,0,0,1-1.052-.873,459.356,459.356,0,0,1-8.474-57.147,441.732,441.732,0,0,1-1.035-57.743l-.869.053-.059,0a1.138,1.138,0,0,1-.8-.363,1.193,1.193,0,0,1-.354-.852c0-.1-.027-.343-.054-.561-.018-.149-.034-.277-.037-.337-.918-17.829-.951-35.941-.1-53.834.851-17.838,2.6-35.865,5.208-53.581a107.989,107.989,0,0,1-14.747-2.114c-13.445-2.887-27.166-8.315-41.944-16.6-6.475-3.628-13.035-7.738-20.054-12.565-2.967-2.04-6.076-4.255-9.24-6.582a10.7,10.7,0,0,1-3.635-3.841,9.333,9.333,0,0,1-1.1.585,6.338,6.338,0,0,1-7.567-1.659,9.728,9.728,0,0,1-2.444-5.2,10.95,10.95,0,0,1,1.517-7.316,1.1,1.1,0,0,1-.345-.623L50.2,132.235q-6.513-31.424-13.027-62.847a17.984,17.984,0,0,1-4.352.53c-6.88,0-12.958-3.758-16.846-6.912a46.137,46.137,0,0,1-11.688-14.3A37.955,37.955,0,0,1,.074,29.061a31.532,31.532,0,0,1,7.4-18.5A29.851,29.851,0,0,1,23.542.577,24.727,24.727,0,0,1,28.87,0,29.086,29.086,0,0,1,43.432,4.125,43.346,43.346,0,0,1,59.045,20.315,51.414,51.414,0,0,1,65.6,41.93a36.521,36.521,0,0,1-.638,10.835,18.861,18.861,0,0,1-5.031,9.423,37.636,37.636,0,0,0,12.115,2.255,20.593,20.593,0,0,0,11.975-3.5c5.929-4.108,7.687-11.925,9.239-18.822q.169-.753.336-1.486c2.179-9.505,1.638-16.556-1.7-22.188A21.1,21.1,0,0,0,73.555,8.075a21.423,21.423,0,0,0-15.989,7.036,1.082,1.082,0,0,1-.8.383,1.309,1.309,0,0,1-1.136-.8,1.164,1.164,0,0,1,.223-1.3,24.467,24.467,0,0,1,17.9-7.915,22.955,22.955,0,0,1,4.76.5,23.979,23.979,0,0,1,11.826,6.547,1.113,1.113,0,0,1,.814-.806,11.854,11.854,0,0,1,3.266-.463,13.237,13.237,0,0,1,7.121,2.207,18.113,18.113,0,0,1,5.38,5.459,38.6,38.6,0,0,1,4.413,10.136,59.348,59.348,0,0,1,2.013,10.9,26.85,26.85,0,0,1-.8,9.856,17.735,17.735,0,0,1-5.063,8.369C105.37,60.1,101.9,61.158,97.7,61.158a24.553,24.553,0,0,1-4.466-.41c-.762,4.29-1.536,8.4-2.285,12.382l0,.008,0,.011c-.793,4.212-1.612,8.567-2.419,13.139L71.739,181.46a.172.172,0,0,1-.007.024c0,.006,0,.011,0,.017a16.5,16.5,0,0,1,7.405,2.563c2.6,1.2,5.276,2.451,7.864,3.661,23.746,11.1,50.66,23.69,77.408,23.69a78.726,78.726,0,0,0,25-3.978,1.236,1.236,0,0,1,.391-.067.994.994,0,0,1,.49.126,11.4,11.4,0,0,1,.411-1.12,1.068,1.068,0,0,1,.065-.121l.02-.033c-2.323-5.5-2.289-12.858-2.269-17.256A242.09,242.09,0,0,1,176.9,142.819a1.351,1.351,0,0,1,.286-1.107,1.156,1.156,0,0,1,.891-.407,1.428,1.428,0,0,1,.607.142c9.209,4.312,17.828,9.916,25.866,15.286a11.028,11.028,0,0,1,3.678-.586,19.936,19.936,0,0,1,4.753.66,39.214,39.214,0,0,1,12.239,5.131,7.115,7.115,0,0,1,2.791,3.3,5.769,5.769,0,0,1-.106,4.287c-1.247,3.156-4.211,4.662-6.89,5.826a53.509,53.509,0,0,0,1.9,7.258,61.52,61.52,0,0,1,1.73,6.309c.627,3.159,1.142,6.733-.71,9.181a17.159,17.159,0,0,1-3.163,2.926,24.065,24.065,0,0,0-2.393,2.046,4.347,4.347,0,0,0-1.135,3.073,11.809,11.809,0,0,1-.19,1.46,4.737,4.737,0,0,1-.528,1.38,105.758,105.758,0,0,0,19.689-9.43c12.821-7.769,24.139-18.508,34.6-32.829,4.31-5.9,8.668-12.525,13.714-20.853.225-.372.452-.786.692-1.224l0-.005c.859-1.571,1.833-3.352,3.3-4.2.152-1.807.212-3.682.27-5.495a54.9,54.9,0,0,1,1.017-10.556c.367-1.588,1.4-4.316,4.2-4.748a4.871,4.871,0,0,1,.737-.055,9.128,9.128,0,0,1,5.316,2.2,15.563,15.563,0,0,1,5.886,11.3A15.357,15.357,0,0,1,301.921,145a1.754,1.754,0,0,1-.017.361,55.732,55.732,0,0,1-3.364,11.888,84.62,84.62,0,0,1-5.481,11.1c-3.154,5.436-6.745,10.725-10.218,15.84l-.026.038c-.8,1.171-1.617,2.382-2.421,3.575l-14.265,21.183c-1.512,2.245-3.083,4.59-4.469,6.659-3.166,4.727-6.441,9.615-9.718,14.391-3.5,5.106-7.51,10.317-13.043,13.853a1.219,1.219,0,0,1,.309.735c2.592,32.848,4.239,66.188,4.9,99.094a1.243,1.243,0,0,1-1.214,1.213l-11.295.706q.024,14.457.049,28.916.013,7.942.027,15.883l0,1.146.015,8.53c.012,7.059.025,15.059-2.747,22.544-2.521,6.809-6.548,12.869-10.8,18.992-3.108,4.476-6.261,9-9.31,13.371q-2.591,3.716-5.18,7.433a1.209,1.209,0,0,1-1.012.54,1.378,1.378,0,0,1-1.191-.686,1.007,1.007,0,0,1,.106-1.079c1.674-2.4,3.381-4.843,5.032-7.2l.02-.029c3.577-5.111,7.275-10.4,10.859-15.631,3.834-5.6,8.1-12.182,10.16-19.486,1.815-6.426,1.735-13.264,1.658-19.877-.014-1.217-.029-2.475-.031-3.714l0-2.751q-.04-23.376-.08-46.751l-36.534,2.278-32.465,2.024a446.424,446.424,0,0,0,9.416,114.4,1.176,1.176,0,0,1-.23,1.02A1.392,1.392,0,0,1,168.292,466Zm-5.212-225.09a543.727,543.727,0,0,0-5.128,106.527q.023.178.043.356l4.628-.289,79.024-4.927c-.673-32.59-2.311-65.548-4.869-97.958a1.073,1.073,0,0,1,.18-.726,1.337,1.337,0,0,1-.28-1.041,1.143,1.143,0,0,1,.556-.782c6.395-3.924,10.616-10.237,14.7-16.342l.073-.109q.5-.741.99-1.477l27.454-40.767q.732-1.087,1.47-2.177c7.386-10.925,15.023-22.221,17.453-35.4l-2.332-.931-3.352-1.337c-.223-.089-.486-.212-.763-.342a6.863,6.863,0,0,0-2.474-.814c-.039,0-.078,0-.115,0-1,.069-1.6,1.138-2.077,2-.09.163-.184.33-.274.481-2.055,3.411-4.513,7.449-7.156,11.543a218.546,218.546,0,0,1-13.391,18.816,114.359,114.359,0,0,1-16.052,16.545,117.509,117.509,0,0,1-18.077,12.359,101.868,101.868,0,0,1-20.156,8.522,1.317,1.317,0,0,1-.239.045,1.382,1.382,0,0,1-.012.249,12.4,12.4,0,0,1-11.96,10.206,10.345,10.345,0,0,1-3.416-.574,11.233,11.233,0,0,1-6.037-5.054,12.782,12.782,0,0,1-1.675-7.652,79.893,79.893,0,0,1-24.628,3.909l-.571,0c-27.727,0-53.374-12.012-78.176-23.629l-.019-.009c-2.683-1.257-5.457-2.556-8.169-3.809a1.239,1.239,0,0,1-.343-.159,1.265,1.265,0,0,1-.264-.165,12.63,12.63,0,0,0-2.232-1.1c0,.015.006.03.009.044a.759.759,0,0,1,.018.12c.293,4.071.277,8.663-2.066,11.861a1.211,1.211,0,0,1-.144.662c-.717,1.348,8,7.177,10.861,9.093l.03.02c.319.214.55.368.685.461,3.85,2.656,7.654,5.153,11.3,7.424a201.536,201.536,0,0,0,23.333,12.609c16.745,7.586,33.19,11.433,48.876,11.433.972,0,1.955-.015,2.92-.044h.046a1.106,1.106,0,0,1,1.126,1.154A1.2,1.2,0,0,1,171.237,241c-.935.028-1.9.043-2.857.043C166.675,241.046,164.892,241,163.081,240.91Zm29.245-31.847h0c-1.075,4.8,1.926,10.1,6.421,11.342a8.476,8.476,0,0,0,2.247.3,9.956,9.956,0,0,0,9.113-6.637,14.684,14.684,0,0,1-3.865,1.219,8.807,8.807,0,0,1-1.4.111c-2.9,0-5.688-1.348-8.151-2.537a11.234,11.234,0,0,1-4.365-3.8Zm-1.351-20.139a.923.923,0,0,1-.032.185,48.709,48.709,0,0,0,1.616,14.37c1,3.286,2.318,5.394,4.143,6.634a14.665,14.665,0,0,0,8.049,2.7,10.092,10.092,0,0,0,4.2-.891c2.794-1.27,4.616-2.616,5.416-4a4.991,4.991,0,0,0,.468-2.43,5.713,5.713,0,0,1,.349-2.218c.854-1.9,2.868-3.463,4.644-4.841.3-.232.582-.451.854-.668,3.161-2.521,2.036-6.838,1.131-10.306-.371-1.425-.8-2.85-1.22-4.228a62.791,62.791,0,0,1-1.948-7.561,28.286,28.286,0,0,0-3.844-.27,20.6,20.6,0,0,0-18.29,10c-1.055,1.686-2.71,3.7-4.6,3.7A2.657,2.657,0,0,1,190.975,188.924ZM69.844,183.889c-.336,0-.673.011-1,.033a6.778,6.778,0,0,0-6.562,6.53,8.157,8.157,0,0,0,1.919,5.91,4.1,4.1,0,0,0,3.042,1.471,4.6,4.6,0,0,0,2.351-.712c4.109-2.446,3.714-7.956,3.424-11.979l-.006-.086a1.043,1.043,0,0,1,.251-.8A16.271,16.271,0,0,0,69.844,183.889Zm138.749-25.314c-3.639,0-6.594,1.9-9.3,5.989a68.876,68.876,0,0,0-5.672,10.6,29.178,29.178,0,0,0-2.156,6.977c-.011.071-.027.159-.046.262-.157.872-.484,2.687.154,3.45a.977.977,0,0,0,.789.343,2.343,2.343,0,0,0,.776-.157c.371-.133.76-.882,1.044-1.429.092-.177.171-.329.234-.429a24.927,24.927,0,0,1,6.837-7.419,22.546,22.546,0,0,1,13.144-3.783,34.9,34.9,0,0,1,5.135.4c2.089-.873,4.458-1.863,5.7-3.86a3.776,3.776,0,0,0,.6-2.931,5.315,5.315,0,0,0-2.679-3.067,38.445,38.445,0,0,0-12.5-4.74A11.354,11.354,0,0,0,208.593,158.576Zm-165-91.2c-.606,0-1.111.01-1.589.03a19.078,19.078,0,0,1-2.51,1.224Q51.39,126.018,63.284,183.4a7.691,7.691,0,0,1,2.655-1.434c.224-.067.45-.124.661-.175C68.9,143,69.307,105.315,67.857,66.6a44.283,44.283,0,0,1-9.067-2.242,1.206,1.206,0,0,1-.691-.6,18.237,18.237,0,0,1-6.726,3.193,21.471,21.471,0,0,1-4.883.449c-.487,0-.978-.006-1.454-.012H45C44.539,67.384,44.062,67.378,43.594,67.378Zm136.039,77.215a244.338,244.338,0,0,0,9.192,37.884,32.8,32.8,0,0,1,1.21-4.667,64.878,64.878,0,0,1,5.494-11.7c1.7-3.02,3.665-6.092,6.558-8.107A201.648,201.648,0,0,0,179.633,144.593ZM70.294,66.826c1.435,38.518,1.028,76.008-1.245,114.612l.1-.006.291-.013a1.266,1.266,0,0,1-.04-.606q2.417-13.693,4.832-27.387c2.8-15.86,5.643-31.692,8.394-47l.006-.034,0-.009c2.7-15.053,5.5-30.619,8.253-46.2a17.486,17.486,0,0,1-1.813-.657.462.462,0,0,1-.061-.033l-.039-.022a17.635,17.635,0,0,1-5.911,4.87,23.971,23.971,0,0,1-11.067,2.538C71.436,66.874,70.865,66.858,70.294,66.826Zm224.5,55.235a2.207,2.207,0,0,0-1.893.978c-.936,1.322-1.046,3.218-1.142,4.891-.017.287-.034.584-.055.871-.127,1.676-.219,3.372-.308,5.012-.11,2.031-.224,4.127-.4,6.184a12.054,12.054,0,0,1,3.1,1.059c.374.166.726.323,1.079.464l2.43.969,2.43.969a12.673,12.673,0,0,0,3.557-9.159,13.7,13.7,0,0,0-3.975-9.707C298.649,123.652,296.547,122.061,294.8,122.061ZM29.283,2.517C20.591,2.517,12.306,7.2,7.12,15.045.4,25.211.825,38.888,8.229,50.739,13.26,58.793,23.11,67.462,32.847,67.463a15.68,15.68,0,0,0,3.887-.484,1.205,1.205,0,0,1,.653-.969,1.067,1.067,0,0,1,.743-.541,21.132,21.132,0,0,1,4.737-.432c.5,0,1.014.007,1.508.014h.011c.474.007,1.011.015,1.536.015a22.557,22.557,0,0,0,4.124-.308,15.889,15.889,0,0,0,8.974-5.129c5.409-6.146,4.826-16.1,3.384-23.375C59.5,21.619,50.073,9.083,38.377,4.316A23.988,23.988,0,0,0,29.283,2.517ZM94.47,13.676a9.708,9.708,0,0,0-2.673.382.168.168,0,0,1-.03.006l-.02,0a23.328,23.328,0,0,1,3.074,4.706c4.05,8.287,2.382,17.763.476,25.093l-.024.094c-1.217,4.683-2.476,9.525-4.907,13.5a17.333,17.333,0,0,0,6.566,1.175c4.318,0,8.153-1.288,10.01-3.362,3.375-3.771,4.705-9.457,3.846-16.445a49.781,49.781,0,0,0-5.147-17.284C103.567,17.737,99.543,13.675,94.47,13.676Z" transform="translate(23 86)" fill="#002d37"/>
  </g>
</svg>
