<svg xmlns="http://www.w3.org/2000/svg" xmlns:xlink="http://www.w3.org/1999/xlink" width="610" height="690.517" viewBox="0 0 610 690.517">
  <defs>
    <clipPath id="clip-path">
      <path id="Clip_4" data-name="Clip 4" d="M0,0H36.134V71.9H0Z" transform="translate(0 0.399)" fill="none"/>
    </clipPath>
    <clipPath id="clip-path-2">
      <path id="Clip_36" data-name="Clip 36" d="M0,0H398.857V573.735H0Z" transform="translate(0.035 0.265)" fill="none"/>
    </clipPath>
  </defs>
  <g id="wish03" transform="matrix(0.899, -0.438, 0.438, 0.899, -32.852, 190.063)">
    <g id="Group_14" data-name="Group 14" transform="translate(0.946 42.014)">
      <path id="Fill_1" data-name="Fill 1" d="M.844,11.794,17.473,0l16.4,54.665a39.984,39.984,0,0,0-18.6,15A75.552,75.552,0,0,0,12.4,56.612Q6.2,34.7,0,12.783" transform="translate(1.133 253.398)" fill="#c5576a"/>
      <g id="Group_5" data-name="Group 5" transform="translate(0 251.86)">
        <path id="Clip_4-2" data-name="Clip 4" d="M0,0H36.134V71.9H0Z" transform="translate(0 0.399)" fill="none"/>
        <g id="Group_5-2" data-name="Group 5" clip-path="url(#clip-path)">
          <path id="Fill_3" data-name="Fill 3" d="M16.434,71.9h0a1.2,1.2,0,0,1-1.153-1.1c-.8-7.129-2.983-14.254-5.095-21.145C9.47,47.32,8.73,44.9,8.063,42.548L4.222,28.974l-.167-.59L.048,14.219a1.03,1.03,0,0,1,.092-.834,1.184,1.184,0,0,1,.781-.523,1.118,1.118,0,0,1,.489-.9L15.751,1.792l.059-.042L18.038.169A.9.9,0,0,1,18.57,0a1.228,1.228,0,0,1,1.121.84q8.2,27.332,16.4,54.665a1.149,1.149,0,0,1-.787,1.381A39.618,39.618,0,0,0,17.378,71.367,1.134,1.134,0,0,1,16.434,71.9ZM17.977,2.956h0L9.556,8.929l-.011.008-.128.091L2.546,13.9a1.259,1.259,0,0,1-.214.122Q6.414,28.453,10.5,42.884l.013.046.026.091c.614,2.172,1.285,4.391,1.934,6.538a141.178,141.178,0,0,1,4.663,18.357A42.026,42.026,0,0,1,33.638,55.174L25.828,29.133l-.033-.111L17.977,2.957Z" transform="translate(0 0.399)" fill="#002d37"/>
        </g>
      </g>
      <path id="Fill_6" data-name="Fill 6" d="M32.317,0,0,21.887a23.1,23.1,0,0,1,10.17,8.5l31.353-19.6c.506-.317,1.07-.728,1.09-1.324a1.851,1.851,0,0,0-.762-1.286Q37.487,4.084,32.8.363" transform="translate(275.029 1.277)" fill="#c5576a"/>
      <path id="Fill_8" data-name="Fill 8" d="M11.318,32.671a1.251,1.251,0,0,1-1-.558A23.21,23.21,0,0,0,.55,24.019.9.9,0,0,1,0,23.245,1.323,1.323,0,0,1,.55,22.082l.359-.243L32.866.194a.97.97,0,0,1,1.443.327,1.2,1.2,0,0,1,.4.212C36.8,2.4,38.677,3.972,40.444,5.528c.329.29.7.586,1.093.9a11.1,11.1,0,0,1,2.988,3.057c1.288,2.484-2.1,4.251-4.348,5.421-.5.259-.926.482-1.244.681l-13.66,8.54L11.856,32.515A1,1,0,0,1,11.318,32.671ZM33.395,2.544,3.338,22.9a25.262,25.262,0,0,1,8.234,7.145l7.986-4.993,13.013-8.135,4.795-3,.032-.02.874-.546c.257-.161.588-.336.939-.522,1.1-.582,2.465-1.307,2.718-2.184a1.074,1.074,0,0,0-.122-.858A11.213,11.213,0,0,0,38.921,7.07c-.442-.334-.86-.649-1.2-.938C36.438,5.022,35.022,3.848,33.395,2.544Z" transform="translate(273.912 0.114)" fill="#002d37"/>
      <path id="Fill_10" data-name="Fill 10" d="M.113,15.84,46.492,27.5,52.538,12a2.119,2.119,0,0,0,.092-1.941,2.116,2.116,0,0,0-1.363-.676Q27.57,4.279,3.7,0L0,15.781" transform="translate(285.945 306.911)" fill="#c9e8f2"/>
      <path id="Fill_12" data-name="Fill 12" d="M47.606,29.721a1.21,1.21,0,0,1-.295-.038l-.678-.17-.174-.044L.932,18.026a1.033,1.033,0,0,1-.609-.4,1.061,1.061,0,0,1-.289-1.041Q1.885,8.7,3.738.806A1.1,1.1,0,0,1,4.867,0a1.442,1.442,0,0,1,.255.023c12.791,2.3,25.53,4.763,37.863,7.327,1.015.211,2.077.4,3.1.58a50.345,50.345,0,0,1,6.6,1.472c1.445.465,2.4,1.1,2.354,2.7-.05,1.789-1.054,3.927-1.939,5.812-.368.784-.716,1.525-.979,2.2Q50.763,23.6,49.4,27.087l-.015.039L48.7,28.9A1.194,1.194,0,0,1,47.606,29.721ZM5.675,2.4h0Q4.068,9.245,2.461,16.1l26.715,6.714,17.753,4.462,1.181-3.028,1.642-4.209q.806-2.067,1.613-4.133c.1-.262.263-.581.434-.918a5.4,5.4,0,0,0,.775-2.182c-.1-1.729-4.128-2.28-6.536-2.61-.61-.083-1.138-.156-1.492-.23C41.852,9.4,39.381,8.889,36.99,8.4,26.843,6.336,16.307,4.315,5.675,2.4Z" transform="translate(284.826 305.807)" fill="#002d37"/>
    </g>
    <g id="Group_38" data-name="Group 38" transform="translate(36.162 0.462)">
      <path id="Fill_15" data-name="Fill 15" d="M15.351,79.033s-9.859,1.345-12.67-6.444-4.265-15.4,0-28.623S19.285,7.714,37.066,3.2s30.545-5.807,43.4,6.793,14.413,28.472,15.81,36.388,4.206,13.483,11.592,16.7,8.2,2.447,7.386,3.213S85.875,92.981,64.1,94.108s-25.4-1.04-25.4-1.04.678-13.775,4.876-17.58,9.494-1.3,15.812-1.918,16.02-2.491,15.658-6.869-2.4-7.721-11.3-9.612c-2.549-.8.9-7.777,2.169-11.328s6.067-22-7.218-29.287S33.483,17.51,26.111,28.111s-8.16,29.2-7.389,39.178-3.371,11.744-3.371,11.744" transform="translate(123.665 164.834)" fill="#a9ce52"/>
      <path id="Fill_17" data-name="Fill 17" d="M12.873.44,0,24.2,65.388,53.915A189.211,189.211,0,0,0,77.47,35.294a3.275,3.275,0,0,0,.61-2.585A3.3,3.3,0,0,0,76.2,31.093L11.954,0" transform="translate(185.025 85.221)" fill="#f4d924"/>
      <path id="Fill_19" data-name="Fill 19" d="M66.506,55.7a1.394,1.394,0,0,1-.575-.134L20.972,35.134.544,25.852a.909.909,0,0,1-.48-.556,1.27,1.27,0,0,1,.077-.979L12.75,1.038a1.3,1.3,0,0,1,.459-.747A.945.945,0,0,1,13.9,0a1.22,1.22,0,0,1,.665.21C22.694,4.143,30.757,8.034,38.555,11.8l.009,0c7.882,3.8,16.033,7.735,24.258,11.716l8.118,3.929,3.928,1.9c.335.162.707.322,1.1.492,2.088.9,4.685,2.021,4.4,4.577a9.072,9.072,0,0,1-1.6,3.543c-.194.306-.376.593-.54.872-1.069,1.82-2.181,3.643-3.3,5.416-2.258,3.567-4.766,7.239-7.456,10.915A1.18,1.18,0,0,1,66.506,55.7ZM14.44,2.636,7.427,15.581l-.127.235L2.669,24.365Q34.4,38.78,66.127,53.2c2.213-3.055,4.177-5.917,6-8.749,1.146-1.779,2.273-3.591,3.349-5.388.144-.24.322-.512.511-.8,1.02-1.554,2.416-3.683,1.333-5.224A6.266,6.266,0,0,0,75.311,32c-.246-.1-.459-.18-.573-.235l-.819-.4-1.69-.818-5.29-2.561-.232-.112-10.54-5.1c-7.208-3.488-14.335-6.925-21.228-10.249l-.029-.014C28.257,9.31,21.379,5.993,14.44,2.636Z" transform="translate(183.914 84.542)" fill="#002d37"/>
      <path id="Fill_21" data-name="Fill 21" d="M79.7,73.58c-.22-.136-37.272-14.381-40.623-25.306s3.607-10.233,10.136-16.009S78.013,18.011,83,15.122,97.866,6.745,98.884,0C88.524,3.337,74.7,12.344,70.44,6.6S66.392,2.93,66.392,2.93L3.964,36.79s-8.919,9.681,0,21.41,34.048,31.216,63.4,39.085C70.344,96.925,79.7,73.58,79.7,73.58" transform="translate(0.101 168.971)" fill="#f4d0b7"/>
      <path id="Fill_23" data-name="Fill 23" d="M0,4.672s3.545,7.233,6.8,7.76S15.714,12.7,14.335,8,10.645-.823,7.888.141,0,4.672,0,4.672" transform="translate(78.778 155.402)" fill="#f4d0b7"/>
      <path id="Fill_25" data-name="Fill 25" d="M42.294.011s14.974,8.367,14,21.236S46.531,40.9,51.56,42.959,62.892,43.4,63.2,49.809s-6.054,9.064-17.442,9.571-14.507-.465-17.7,9.912S23.444,89.159,11.932,85.951-1.818,75.824,1.244,69.193,8.269,63.987,5.23,47.724,11.308-.694,42.294.011" transform="translate(135.852 178.964)" fill="#f4d0b7"/>
      <path id="Fill_27" data-name="Fill 27" d="M0,43.262s52.189-3.676,76.34-8.48,65.238-15.157,66.967-15.89,14.883-20.71,20.1-18.757,2.123,4.644.09,9.5c-1.925,4.6,5.2,6.746,4.7,10.507s-2.434,8.947-21.332,16.969S97.684,58.392,48.428,65.46L3.575,71.648Z" transform="translate(229.052 224.611)" fill="#f4d0b7"/>
      <path id="Fill_29" data-name="Fill 29" d="M68.294,13.051,12.453,0S.244,16.559,0,27.9c.82,4.962,9.45,7.465,22,8.871,9.506,1.51,9.122,4.01,9.122,4.01s-4.283,32.711-1.73,57.626,4.8,39.84,12.369,59.353l6.808,15.083s10.926,4.068,27.012-.416,36.483-10.252,36.808-18.7S114.206,68.7,114.206,68.7L166.3,57.058s-5.419-25.079-3.8-38.105a295.925,295.925,0,0,1-68.1-3.6s-3.234,8.04-13.966,7.013c-8.911-.853-8.708-3.85-12.143-9.314" transform="translate(67.347 242.551)" fill="#f4d924"/>
      <path id="Fill_31" data-name="Fill 31" d="M155.612,0S139.943,21.233,93.932,16.782C88.075,19.6,61.112,41.09,33.405,73.96,7.709,104.3,0,113.641,0,113.641l43.364,45.712,77.58-57.544s26.088,71.045,26.532,72.252,61.017-34.366,61.017-34.366-1.473-69.134-12.816-91.2C181.542,21,155.612,0,155.612,0" transform="translate(21.982 398.613)" fill="#c9e8f2"/>
      <path id="Fill_33" data-name="Fill 33" d="M9.533,51.715S-2.215,50.938.372,40.192,39.251,4.93,39.251,4.93,64-6.163,67.512,4.93,88.974,54.22,88.974,54.22L129.813,153.5,106.8,163.638l-8.07-5.749s-14.131,9.719-27.6,15.8c-11.565,5.217-14.988-3.62-8.493-10.048l6.5-6.427s5.367,11.528,11.3,7.955.438-12.581.438-12.581l9.83-6.1Z" transform="translate(9.649 2.864)" fill="#da763c"/>
      <g id="Group_37" data-name="Group 37">
        <path id="Clip_36-2" data-name="Clip 36" d="M0,0H398.857V573.735H0Z" transform="translate(0.035 0.265)" fill="none"/>
        <g id="Group_37-2" data-name="Group 37" clip-path="url(#clip-path-2)">
          <path id="Fill_35" data-name="Fill 35" d="M169.453,573.735h0a1.421,1.421,0,0,1-1.384-.954l-12.932-35.129q-6.48-17.607-12.963-35.213L105.755,529.75,96.092,537,67.106,558.733a1.233,1.233,0,0,1-.743.273,1.33,1.33,0,0,1-1.186-.989,1.489,1.489,0,0,1,.511-1.706l75.481-56.6-9-24.448c-3.927-10.668-7.165-19.574-10.107-28.945a220.761,220.761,0,0,1-7.35-29.726l-.07-.01-.016,0-.054-.008c-32.781,28.833-61.693,58.98-85.931,89.6a1.151,1.151,0,0,1-.907.485,1.474,1.474,0,0,1-1.248-.879,1.457,1.457,0,0,1,.167-1.59c24.462-30.9,53.658-61.3,86.776-90.353.045-.071.079-.113.093-.113a136.237,136.237,0,0,1-10.33-25.274c-4.7-15.776-7.288-33.108-7.912-52.985-.262-8.367-.183-17.183.242-26.952.346-7.933.915-16.439,1.79-26.77l-7.08-1.124-.064-.01-8.048-1.278c-.939-.149-1.965-.257-3.053-.372-3.534-.373-7.538-.795-10.094-2.832a6.429,6.429,0,0,1-2.308-3.911,12.968,12.968,0,0,1,.152-4.958,308.66,308.66,0,0,1-30.149-13.07,144.219,144.219,0,0,1-12.724-7.065,77.621,77.621,0,0,1-11.57-8.79,49.332,49.332,0,0,1-7.582-8.712A28.433,28.433,0,0,1,.331,219.056c-1.359-7.387,1.473-13.315,8.19-17.141,18.746-10.684,37.638-20.928,55.261-30.407,2.416-1.3,4.364-3.56,6.248-5.746.968-1.123,1.969-2.285,3-3.273l.014-.014a56.976,56.976,0,0,1,6.375-5.494,15.486,15.486,0,0,1,7.648-3.151c.169-.013.338-.019.5-.019a6.136,6.136,0,0,1,1.373.153c2.515-1.61,5.334-3.285,8.871-5.271l-1.63-1.9c-.719-.838-1.463-1.705-2.2-2.567-6.027-7.051-12.134-14.24-18.041-21.191C57.517,101.342,38.461,78.915,19.111,57.391a1.382,1.382,0,0,1-.131-1.72l-.045,0-.067,0a10.508,10.508,0,0,1-6.493-2.992,12.527,12.527,0,0,1-3.425-6.333c-.253-1.162-.98-5.174.311-8.005a11.413,11.413,0,0,1,1.648-2.384c.245-.3.5-.6.724-.906A.434.434,0,0,1,11.669,35c.011-.011.02-.021.03-.031a1.486,1.486,0,0,1,.154-.212,120.984,120.984,0,0,1,15.8-14.887A149.526,149.526,0,0,1,45.674,7.737,96.386,96.386,0,0,1,54.6,3.009,34.111,34.111,0,0,1,64.253.157,19.92,19.92,0,0,1,66.721,0a14.148,14.148,0,0,1,6.664,1.5,9.263,9.263,0,0,1,4.44,5.146,11.9,11.9,0,0,1,.713,3.973c4.963,11.022,10.18,22.11,14.628,31.5q1.578,3.33,3.159,6.661l.042.089c8.141,17.158,16.56,34.9,24.187,52.63a523,523,0,0,1,20.228,54.224,1.4,1.4,0,0,1-.645,1.584c-8.35,3.6-16.542,7.1-24.966,10.276a1.017,1.017,0,0,1-.362.061,1.4,1.4,0,0,1-1.006-.421c-.846-.972-1.7-1.963-2.53-2.922l-.009-.011q-.768-.89-1.538-1.779a9.851,9.851,0,0,1-1.792,1.026l0,0c-.366.179-.744.364-1.1.564-2.021,1.131-4.2,2.305-6.872,3.7a1.337,1.337,0,0,1,.208,1.608,36.561,36.561,0,0,1-11.492,12.82c-3.7,2.548-7.537,3.764-11.6,5.052l-.031.01c-.672.213-1.367.433-2.062.66-4.161,1.357-8.2,3.764-12.1,6.091-.835.5-1.624.968-2.42,1.431-3.171,1.847-6.53,3.833-9.665,6.01a51.048,51.048,0,0,0-8.641,7.351,13.926,13.926,0,0,0-2.459,3.425c-1.041,2.265.519,3.94,2.027,5.56l.061.065a52.083,52.083,0,0,0,12.631,9.58c3.8,2.174,7.8,4.12,11.671,6a133.677,133.677,0,0,1,16.877,9.239,10.522,10.522,0,0,1,1.537.177c11.706,2.188,23.549,4.854,35,7.431h.007l.008,0c4.75,1.069,9.661,2.174,14.492,3.23a1.247,1.247,0,0,1,.071-.247,39.982,39.982,0,0,1,2.661-8.3c.03-.067.064-.133.1-.2s.049-.1.072-.144a15,15,0,0,1-9.36-4.809,15.873,15.873,0,0,1-4.565-9.132,43.527,43.527,0,0,1,.937-12.829,113.6,113.6,0,0,1,3.452-12.476,76.242,76.242,0,0,1,8.992-18.8,53.346,53.346,0,0,1,14.557-14.794,48.586,48.586,0,0,1,26.691-8.077,42.581,42.581,0,0,1,30.917,12.988,41.918,41.918,0,0,1,9.955,16.361,50.212,50.212,0,0,1,1.766,10.176c.452,4.368.919,8.885,2.881,12.951A25.054,25.054,0,0,0,239.254,229.5a1.406,1.406,0,0,1,.981,1.025,1.339,1.339,0,0,1-.361,1.32,113.635,113.635,0,0,1-25.682,18.621,82.823,82.823,0,0,1-29.979,9.214,229.076,229.076,0,0,0,23.546,1.218c7.331,0,14.751-.359,22.052-1.067.028,0,.057,0,.087,0a1.365,1.365,0,0,1,.975.489,1.214,1.214,0,0,1,.343.919c-.181,1.6-.323,3.3-.422,5.038a1.375,1.375,0,0,1,.7-.183h.417a263.717,263.717,0,0,0,27.916-1.691c18.293-1.913,37.82-4.994,59.7-9.419,14.525-2.938,33.562-7.067,52.009-12.965,2.141-3.72,5.478-7.564,8.422-10.956l.041-.047c.663-.764,1.289-1.485,1.9-2.2a24.523,24.523,0,0,1,3.907-3.843,8.273,8.273,0,0,1,4.966-1.865,6.713,6.713,0,0,1,1.463.164,6.064,6.064,0,0,1,3.984,2.812,4.919,4.919,0,0,1,.39,4.049,11.183,11.183,0,0,1-1.905,3.225c-.3.4-.606.8-.886,1.219-1.644,2.442-.167,3.888,1.543,5.563.24.235.485.475.723.72,2.056,2.109,4.106,4.959,1.688,8.312-1.606,2.227-4.272,3.895-6.624,5.366l-.017.01c-.344.215-.669.419-.992.624a144.767,144.767,0,0,1-18.306,9.734c-12.924,5.834-27.183,10.776-44.875,15.554-14.671,3.962-30.122,7.4-45.924,10.216-14.956,2.665-30.637,4.848-46.608,6.487.149.5.346,1.158.554,1.806a1.277,1.277,0,0,1-.1.993,1.505,1.505,0,0,1-.881.731,384.66,384.66,0,0,1-51.152,11.494c-1,12.917-1.622,25.844-1.84,38.42-.2,11.7-.078,23.563.369,35.261.035.907.123,1.875.216,2.9.314,3.443.669,7.342-.963,10.225.011.01.023.018.035.026a.418.418,0,0,1,.044.034c8.533,8.025,15.583,14.776,22.164,22.485a101.335,101.335,0,0,1,15.122,22.69c3.6,7.7,5.93,16.528,7.322,27.779,1.86,15.033,3.256,30.388,4.606,45.238v.013c.62,6.816,1.261,13.863,1.938,20.783a1.189,1.189,0,0,1-.275.943,1.331,1.331,0,0,1-.994.4,1.486,1.486,0,0,1-1.541-1.343l-.252-2.579q-1.649-16.857-3.3-33.715c-.328-3.358-.61-6.819-.882-10.167-1.376-16.934-2.8-34.445-10.885-49.6A110.047,110.047,0,0,0,197.983,420.2c-6.151-6.818-13.044-13.3-19.125-19.017-2.3,2.245-5.583,3.9-8.477,5.368-.5.253-1.017.514-1.519.775a87.068,87.068,0,0,1-51.242,9.652,230.251,230.251,0,0,0,8.241,32.074c4.923,15.066,10.585,30.179,16.061,44.795q1.052,2.809,2.1,5.618a1.728,1.728,0,0,1,.11.294c1.173,3.139,2.536,6.791,3.866,10.407q11.389,30.935,22.776,61.87a1.16,1.16,0,0,1-.1,1.115A1.492,1.492,0,0,1,169.453,573.735ZM82.787,245.5a3.947,3.947,0,0,0-2.873,1.117c-2.984,2.872-5.095,7.66-6.791,11.507l-.064.146a60.436,60.436,0,0,0-2.605,7.123c-.053.177-.109.362-.168.552l-.01.032c-.646,2.107-1.53,4.992-.4,6.977,1.064,1.869,3.589,2.227,5.618,2.514.3.042.578.082.845.125,1.573.253,3.175.506,4.724.751l.265.042.19.03,2.438.386,5.558.883.295.047,9.38,1.49a1.4,1.4,0,0,1,1.032,1.353c-.986,11.473-1.6,20.983-1.923,29.928-1.115,30.607-.009,70.038,18.6,103.571a.94.94,0,0,1,.109.122,88.168,88.168,0,0,0,54.145-11.327c.387-.226.787-.449,1.21-.685a19.62,19.62,0,0,0,4.883-3.406c1.85-2.026,1.7-4.576,1.562-7.041-.017-.3-.035-.6-.048-.9-.246-5.318-.426-10.692-.536-15.971-.439-21.051.2-42.539,1.887-63.868a1.413,1.413,0,0,1,1.031-1.353,385.028,385.028,0,0,0,50.706-11.243,91.588,91.588,0,0,1-3.6-35.615c-6.8.612-13.716.923-20.548.923a231.2,231.2,0,0,1-45.766-4.593,11.938,11.938,0,0,1-1.712,2.757,12.794,12.794,0,0,1-4.957,3.529,15.874,15.874,0,0,1-6.015,1.135,17.477,17.477,0,0,1-9.271-2.628,12.49,12.49,0,0,1-5.607-7.394c-8.027-1.737-16.193-3.495-24.09-5.194l-.208-.045-2.4-.516c-5.372-1.156-9.813-2.113-13.974-3.011l-6.733-1.453c-.378-.082-.766-.179-1.142-.274A12.929,12.929,0,0,0,82.787,245.5Zm147.9,23.158a89.9,89.9,0,0,0,3,25.958,1.447,1.447,0,0,1,.68-.247c14.619-1.5,29.688-3.61,44.787-6.273,35.6-6.278,61.918-13.385,85.319-23.044a171.407,171.407,0,0,0,17.847-8.506c2.807-1.555,5.344-3.085,7.756-4.675l.041-.027a32.146,32.146,0,0,0,4.251-3.146,3.715,3.715,0,0,0,1.486-2.345c.238-1.468-.587-2.3-1.542-3.268l-.229-.233c-.266-.272-.54-.538-.83-.821l-.005-.005a15.325,15.325,0,0,1-2.465-2.816,4.514,4.514,0,0,1-.631-3.54,9.759,9.759,0,0,1,1.8-3.06c1.316-1.769,2.676-3.6,1.743-5.191a2.936,2.936,0,0,0-2.6-1.652c-5.778,0-15.9,15.484-17.226,17.82a1.382,1.382,0,0,1-.436.477,1.366,1.366,0,0,1-.733.532c-7.949,2.555-16.66,4.958-27.412,7.562-19.394,4.7-39.625,8.656-60.131,11.768-7.279,1.1-16.87,2.5-26.507,3.489a260.284,260.284,0,0,1-26.682,1.491h-.471A1.35,1.35,0,0,1,230.692,268.654ZM67.3,172.607a9.113,9.113,0,0,1-1.114.782c-4.964,2.88-10.105,5.657-15.077,8.343-2.475,1.337-5.034,2.72-7.549,4.1l-7.124,3.919-1.4.77-14.1,7.756c-1.213.667-2.452,1.337-3.651,1.985l-.015.008c-2.547,1.376-5.178,2.8-7.713,4.281-2.394,1.4-5.277,3.488-6.331,7.224-2.155,7.639,3.144,15.493,5.522,18.515a64.373,64.373,0,0,0,16.335,14.222c14.05,8.963,30.062,15.408,42.442,20.02a61.556,61.556,0,0,1,2.706-6.787q.214-.476.4-.9a53.512,53.512,0,0,1,6.416-11.167,8.455,8.455,0,0,1,2.185-2.049A154.013,154.013,0,0,0,64.834,236a128.836,128.836,0,0,1-17.055-9.371c-3.475-2.4-8.727-6.017-10.742-10.327-1.438-3.075.229-5.852,1.842-7.927,4.685-6.027,11.789-10.3,18.057-14.077l.745-.449c5.16-3.11,10.495-6.325,16.081-8.415,1.289-.482,2.59-.884,3.848-1.273a34.147,34.147,0,0,0,7.533-3.007A33.741,33.741,0,0,0,96.966,169.35c-1.553.8-2.981,1.526-4.629,2.365l-1.781.908-.006,0c-2.265,1.156-4.608,2.351-6.932,3.483-2.668,1.3-5.527,2.5-8.355,2.5a8.377,8.377,0,0,1-3.517-.74A8.2,8.2,0,0,1,67.3,172.607Zm106.221,6.919a15.611,15.611,0,0,0-4.116.58,32.651,32.651,0,0,0-11.689,6.308,41.847,41.847,0,0,0-8.052,8.766,43.972,43.972,0,0,0-5.353,10.633,40.992,40.992,0,0,0-1.14,23.822c.147.556.328,1.12.5,1.666a12.56,12.56,0,0,1,.863,4.539,9.345,9.345,0,0,1-2.027,4.657l-.083.124a37.844,37.844,0,0,0-5.623,13.368c.011.211.029.425.056.635a1.351,1.351,0,0,1,.122.714c1.142,5.326,7.146,8.509,12.291,8.51a11.3,11.3,0,0,0,2.208-.211,12.042,12.042,0,0,0,6.717-3.711c1.975-2.444,2.744-5.748,3.488-8.943a41.069,41.069,0,0,1,1.339-4.868c1.44-3.9,3.453-6.738,5.983-8.438a9.928,9.928,0,0,1,5.8-1.619,34.465,34.465,0,0,1,4.087.333c1.1.134,2.242.272,3.373.323.428.019.878.029,1.336.029,2.776,0,11.969-.415,13.736-5.76a3.726,3.726,0,0,0-.082-3.047c-.925-1.715-3.433-2.387-5.645-2.979-.566-.152-1.1-.295-1.581-.449-3.2-1.027-4.987-2.667-5.447-5.014-.551-2.8,1.076-5.187,2.65-7.494a24.013,24.013,0,0,0,1.805-2.928,19.261,19.261,0,0,0,1.085-13.159,26.358,26.358,0,0,0-6.437-11.73A13.765,13.765,0,0,0,173.52,179.526Zm1.617,59.244c-7.384,0-9.168,6.73-10.894,13.238-.4,1.491-.8,3.031-1.272,4.449,2.751.553,5.551,1.062,8.321,1.511.91.037,1.837.056,2.756.056,20.951,0,43.59-9.679,62.114-26.557a27.982,27.982,0,0,1-13.414-10.346c-3.739-5.362-4.412-11.223-5.124-17.427l0-.022c-.117-1.022-.239-2.079-.374-3.129-1.626-12.587-9.979-24.052-21.8-29.92a38.4,38.4,0,0,0-8.695-3.064,41.924,41.924,0,0,0-9.13-.993,45.689,45.689,0,0,0-22.237,5.818c-13.753,7.686-20.967,21.486-24.6,31.709a94.449,94.449,0,0,0-4.818,20.03c-.5,4.086.807,10.272,4.273,14.188a11,11,0,0,0,3.326,2.6,9.506,9.506,0,0,0,4.267.988c.221,0,.448-.007.674-.021q.26-.4.524-.8a27.967,27.967,0,0,0,2.305-3.965c.836-1.9.017-4.415-.706-6.639a23.474,23.474,0,0,1-.772-2.716,42.6,42.6,0,0,1-.741-6.842,45.15,45.15,0,0,1,2-14.4,46.794,46.794,0,0,1,6.348-13.088,45.276,45.276,0,0,1,8.873-9.539,35.437,35.437,0,0,1,11.413-6.222,20.126,20.126,0,0,1,6.044-.981,14.59,14.59,0,0,1,7.68,2.067,25.306,25.306,0,0,1,8.984,10.185,26.954,26.954,0,0,1,3.082,13.07c-.166,4.749-1.941,8.405-4.556,12.435-1.274,1.963-1.748,3.584-1.41,4.816a3.328,3.328,0,0,0,1.894,2.06,15.379,15.379,0,0,0,3.162,1.021c.57.14,1.159.284,1.718.459a10.515,10.515,0,0,1,4.221,2.316,5.881,5.881,0,0,1,1.839,4.323,7.41,7.41,0,0,1-2.366,5.453,14.253,14.253,0,0,1-5.244,3.124,28.418,28.418,0,0,1-8.439,1.515c-.166.005-.338.008-.51.008a34.02,34.02,0,0,1-4.428-.385,37.727,37.727,0,0,0-3.984-.38c-.1,0-.2,0-.3,0Zm-96.9-77.338a79.476,79.476,0,0,0-6.1,5.932c-.587.614-1.161,1.3-1.716,1.968-.207.249-.421.5-.637.759a5.412,5.412,0,0,0,3.575,5.388,6.579,6.579,0,0,0,2.026.308,15.647,15.647,0,0,0,6.371-1.887c.624-.295,1.25-.611,1.856-.917l.622-.314,2.884-1.443c6.345-3.171,12.905-6.449,19.152-10.024.208-.119.422-.257.629-.391a10.122,10.122,0,0,1,.891-.535c-3.225-3.732-5.8-6.722-8.1-9.41-3.122,1.746-5.669,3.239-8.013,4.7a6.709,6.709,0,0,1,1.418,2.646c.822,2.832.986,6.733-.5,9.065a4.937,4.937,0,0,1-4.364,2.212,9.242,9.242,0,0,1-3.579-.78,11.746,11.746,0,0,1-6.313-6.727A1.368,1.368,0,0,1,78.234,161.432Zm9.34-4.816a7.145,7.145,0,0,0-2.476.542,22.058,22.058,0,0,0-5.455,3.144,1.456,1.456,0,0,1,1.4.935,8.754,8.754,0,0,0,4.323,4.738,5.392,5.392,0,0,0,2.287.575c1.846,0,3.013-1.266,3.122-3.386.09-1.753.072-3.949-.878-5.387A2.607,2.607,0,0,0,87.574,156.616Zm-9.9-141.139a19.83,19.83,0,0,1-3.455,5.9c-3.961,4.744-9.2,8.616-14.262,12.361l-.009.007c-.768.568-1.563,1.156-2.33,1.73A198.983,198.983,0,0,1,38.908,47.957c-.667.39-1.341.793-2.054,1.219l-.018.011c-4.727,2.829-10.085,6.036-15.51,6.477,6.012,6.691,12.5,14.056,19.849,22.514C53.321,92.163,65.517,106.5,77.312,120.363l.008.01c12.366,14.535,25.152,29.564,37.893,44.2,7.235-2.755,14.228-5.693,22.5-9.257-3.132-10.176-6.82-20.744-10.962-31.408-9.719-25.031-21.424-49.685-32.743-73.528C88.589,38.969,82.987,27.168,77.674,15.476ZM66.7,2.736c-5.37,0-10.808,2.554-15.418,5.052-4.8,2.6-9.508,5.422-14,8.386a113.184,113.184,0,0,0-12.4,9.51A127.138,127.138,0,0,0,13.839,36.743c-.118.151-.238.3-.354.447l0,0a9.1,9.1,0,0,0-1.793,2.938,11.836,11.836,0,0,0,1.067,8.5,7.519,7.519,0,0,0,7.019,4.185c3.754,0,7.9-1.92,11.461-3.8A195.087,195.087,0,0,0,62.383,28.253c.564-.453,1.161-.923,1.688-1.338,4.032-3.177,8.2-6.462,10.42-10.945a10.217,10.217,0,0,0,.159-9.229,7.224,7.224,0,0,0-2.344-2.586A8.33,8.33,0,0,0,68.6,2.845,16.309,16.309,0,0,0,66.7,2.736Z" transform="translate(0.035 0.265)" fill="#002d37"/>
        </g>
      </g>
    </g>
  </g>
</svg>
